%YAML 1.1
%TAG !u! tag:unity3d.com,2011:
--- !u!74 &7400000
AnimationClip:
  m_ObjectHideFlags: 0
  m_CorrespondingSourceObject: {fileID: 0}
  m_PrefabInternal: {fileID: 0}
  m_Name: LightActiveAnimation
  serializedVersion: 6
  m_Legacy: 0
  m_Compressed: 0
  m_UseHighQualityCurve: 1
  m_RotationCurves: []
  m_CompressedRotationCurves: []
  m_EulerCurves: []
  m_PositionCurves: []
  m_ScaleCurves: []
  m_FloatCurves: []
  m_PPtrCurves:
  - curve:
    - time: 0
      value: {fileID: 21300000, guid: aa7f49d7c2f084768a308badd5413b8e, type: 3}
    - time: 0.083333336
      value: {fileID: 21300000, guid: 8c59a5282c6f3426e9f767df80b33968, type: 3}
    - time: 0.16666667
      value: {fileID: 21300000, guid: aa4158bcffbad48b4b9241c0f71ef661, type: 3}
    - time: 0.25
      value: {fileID: 21300000, guid: 51ab197ee33f947cb8f10542918bc1a7, type: 3}
    - time: 0.33333334
      value: {fileID: 21300000, guid: d954e30871efc403fa2ccad15f43ef2b, type: 3}
    - time: 0.41666666
      value: {fileID: 21300000, guid: 0f50b86b3ce094ba9b49f616813ca328, type: 3}
    - time: 0.5
      value: {fileID: 21300000, guid: dbeb072d1112743c2a2d9cdd607a66bc, type: 3}
    - time: 0.5833333
      value: {fileID: 21300000, guid: 96b78e284d0ac46deaca985982b640c9, type: 3}
    - time: 0.6666667
      value: {fileID: 21300000, guid: aac6b9a96c33f4ff29390762c6081460, type: 3}
    - time: 0.75
      value: {fileID: 21300000, guid: 5a303deb5e92e43449f0aae3ad31c1d5, type: 3}
    - time: 0.8333333
      value: {fileID: 21300000, guid: fba21c634e9474e909a8cfe361e5451b, type: 3}
    - time: 0.9166667
      value: {fileID: 21300000, guid: 09dd5bf317fda46e585e3068ea6e73af, type: 3}
    - time: 1
      value: {fileID: 21300000, guid: bb909ef752ee54230a1c81a4bee01488, type: 3}
    - time: 1.0833334
      value: {fileID: 21300000, guid: 7b299b943525e439baabfaad088fd5aa, type: 3}
    - time: 1.1666666
      value: {fileID: 21300000, guid: 1a7665f522ef643fb946db57096e000a, type: 3}
    - time: 1.25
      value: {fileID: 21300000, guid: 5776308f56c9643b88f77bd4dbcd5309, type: 3}
    - time: 1.3333334
      value: {fileID: 21300000, guid: 1a7665f522ef643fb946db57096e000a, type: 3}
    - time: 1.4166666
      value: {fileID: 21300000, guid: 7b299b943525e439baabfaad088fd5aa, type: 3}
    - time: 1.5
      value: {fileID: 21300000, guid: bb909ef752ee54230a1c81a4bee01488, type: 3}
    - time: 1.5833334
      value: {fileID: 21300000, guid: 09dd5bf317fda46e585e3068ea6e73af, type: 3}
    - time: 1.6666666
      value: {fileID: 21300000, guid: fba21c634e9474e909a8cfe361e5451b, type: 3}
    - time: 1.75
      value: {fileID: 21300000, guid: 5a303deb5e92e43449f0aae3ad31c1d5, type: 3}
    - time: 1.8333334
      value: {fileID: 21300000, guid: aac6b9a96c33f4ff29390762c6081460, type: 3}
    - time: 1.9166666
      value: {fileID: 21300000, guid: 96b78e284d0ac46deaca985982b640c9, type: 3}
    - time: 2
      value: {fileID: 21300000, guid: dbeb072d1112743c2a2d9cdd607a66bc, type: 3}
    - time: 2.0833333
      value: {fileID: 21300000, guid: 0f50b86b3ce094ba9b49f616813ca328, type: 3}
    - time: 2.1666667
      value: {fileID: 21300000, guid: d954e30871efc403fa2ccad15f43ef2b, type: 3}
    - time: 2.25
      value: {fileID: 21300000, guid: 51ab197ee33f947cb8f10542918bc1a7, type: 3}
    - time: 2.3333333
      value: {fileID: 21300000, guid: aa4158bcffbad48b4b9241c0f71ef661, type: 3}
    - time: 2.4166667
      value: {fileID: 21300000, guid: 8c59a5282c6f3426e9f767df80b33968, type: 3}
    - time: 2.5
      value: {fileID: 21300000, guid: aa7f49d7c2f084768a308badd5413b8e, type: 3}
    attribute: m_Sprite
    path: 
    classID: 212
    script: {fileID: 0}
  m_SampleRate: 12
  m_WrapMode: 0
  m_Bounds:
    m_Center: {x: 0, y: 0, z: 0}
    m_Extent: {x: 0, y: 0, z: 0}
  m_ClipBindingConstant:
    genericBindings:
    - serializedVersion: 2
      path: 0
      attribute: 0
      script: {fileID: 0}
      typeID: 212
      customType: 23
      isPPtrCurve: 1
    pptrCurveMapping:
    - {fileID: 21300000, guid: aa7f49d7c2f084768a308badd5413b8e, type: 3}
    - {fileID: 21300000, guid: 8c59a5282c6f3426e9f767df80b33968, type: 3}
    - {fileID: 21300000, guid: aa4158bcffbad48b4b9241c0f71ef661, type: 3}
    - {fileID: 21300000, guid: 51ab197ee33f947cb8f10542918bc1a7, type: 3}
    - {fileID: 21300000, guid: d954e30871efc403fa2ccad15f43ef2b, type: 3}
    - {fileID: 21300000, guid: 0f50b86b3ce094ba9b49f616813ca328, type: 3}
    - {fileID: 21300000, guid: dbeb072d1112743c2a2d9cdd607a66bc, type: 3}
    - {fileID: 21300000, guid: 96b78e284d0ac46deaca985982b640c9, type: 3}
    - {fileID: 21300000, guid: aac6b9a96c33f4ff29390762c6081460, type: 3}
    - {fileID: 21300000, guid: 5a303deb5e92e43449f0aae3ad31c1d5, type: 3}
    - {fileID: 21300000, guid: fba21c634e9474e909a8cfe361e5451b, type: 3}
    - {fileID: 21300000, guid: 09dd5bf317fda46e585e3068ea6e73af, type: 3}
    - {fileID: 21300000, guid: bb909ef752ee54230a1c81a4bee01488, type: 3}
    - {fileID: 21300000, guid: 7b299b943525e439baabfaad088fd5aa, type: 3}
    - {fileID: 21300000, guid: 1a7665f522ef643fb946db57096e000a, type: 3}
    - {fileID: 21300000, guid: 5776308f56c9643b88f77bd4dbcd5309, type: 3}
    - {fileID: 21300000, guid: 1a7665f522ef643fb946db57096e000a, type: 3}
    - {fileID: 21300000, guid: 7b299b943525e439baabfaad088fd5aa, type: 3}
    - {fileID: 21300000, guid: bb909ef752ee54230a1c81a4bee01488, type: 3}
    - {fileID: 21300000, guid: 09dd5bf317fda46e585e3068ea6e73af, type: 3}
    - {fileID: 21300000, guid: fba21c634e9474e909a8cfe361e5451b, type: 3}
    - {fileID: 21300000, guid: 5a303deb5e92e43449f0aae3ad31c1d5, type: 3}
    - {fileID: 21300000, guid: aac6b9a96c33f4ff29390762c6081460, type: 3}
    - {fileID: 21300000, guid: 96b78e284d0ac46deaca985982b640c9, type: 3}
    - {fileID: 21300000, guid: dbeb072d1112743c2a2d9cdd607a66bc, type: 3}
    - {fileID: 21300000, guid: 0f50b86b3ce094ba9b49f616813ca328, type: 3}
    - {fileID: 21300000, guid: d954e30871efc403fa2ccad15f43ef2b, type: 3}
    - {fileID: 21300000, guid: 51ab197ee33f947cb8f10542918bc1a7, type: 3}
    - {fileID: 21300000, guid: aa4158bcffbad48b4b9241c0f71ef661, type: 3}
    - {fileID: 21300000, guid: 8c59a5282c6f3426e9f767df80b33968, type: 3}
    - {fileID: 21300000, guid: aa7f49d7c2f084768a308badd5413b8e, type: 3}
  m_AnimationClipSettings:
    serializedVersion: 2
    m_AdditiveReferencePoseClip: {fileID: 0}
    m_AdditiveReferencePoseTime: 0
    m_StartTime: 0
    m_StopTime: 2.5833333
    m_OrientationOffsetY: 0
    m_Level: 0
    m_CycleOffset: 0
    m_HasAdditiveReferencePose: 0
    m_LoopTime: 1
    m_LoopBlend: 0
    m_LoopBlendOrientation: 0
    m_LoopBlendPositionY: 0
    m_LoopBlendPositionXZ: 0
    m_KeepOriginalOrientation: 0
    m_KeepOriginalPositionY: 1
    m_KeepOriginalPositionXZ: 0
    m_HeightFromFeet: 0
    m_Mirror: 0
  m_EditorCurves: []
  m_EulerEditorCurves: []
  m_HasGenericRootTransform: 0
  m_HasMotionFloatCurves: 0
  m_GenerateMotionCurves: 0
  m_Events: []
