%YAML 1.1
%TAG !u! tag:unity3d.com,2011:
--- !u!687078895 &4343727234628468602
SpriteAtlas:
  m_ObjectHideFlags: 0
  m_CorrespondingSourceObject: {fileID: 0}
  m_PrefabInstance: {fileID: 0}
  m_PrefabAsset: {fileID: 0}
  m_Name: Level 4 Sprites
  m_EditorData:
    serializedVersion: 2
    textureSettings:
      serializedVersion: 2
      anisoLevel: 1
      compressionQuality: 50
      maxTextureSize: 2048
      textureCompression: 0
      filterMode: 1
      generateMipMaps: 0
      readable: 0
      crunchedCompression: 0
      sRGB: 1
    platformSettings:
    - serializedVersion: 2
      m_BuildTarget: DefaultTexturePlatform
      m_MaxTextureSize: 512
      m_ResizeAlgorithm: 0
      m_TextureFormat: -1
      m_TextureCompression: 1
      m_CompressionQuality: 50
      m_CrunchedCompression: 0
      m_AllowsAlphaSplitting: 0
      m_Overridden: 0
      m_AndroidETC2FallbackOverride: 0
    packingSettings:
      serializedVersion: 2
      padding: 4
      blockOffset: 1
      allowAlphaSplitting: 0
      enableRotation: 1
      enableTightPacking: 1
    variantMultiplier: 1
    packables:
    - {fileID: 102900000, guid: 080cee942ca3947138518557fc50cac6, type: 3}
    totalSpriteSurfaceArea: 680032
    bindAsDefault: 1
  m_MasterAtlas: {fileID: 0}
  m_PackedSprites:
  - {fileID: 21300000, guid: cbc441711af494bf9b264e3174c5978d, type: 3}
  - {fileID: 21300000, guid: ef0797020694946eaaaafb4e0fb2cbc4, type: 3}
  - {fileID: 21300000, guid: 95978ed21a8a74342802fa7f71035e4e, type: 3}
  - {fileID: 21300000, guid: c5ea660645f844aa485daa18d27566b0, type: 3}
  - {fileID: 21300000, guid: 2f623a16315794fa29e4dfa72491df28, type: 3}
  - {fileID: 21300000, guid: d6a64146b464b4fc58ac36e8d0a29ca7, type: 3}
  - {fileID: 21300000, guid: 9284d277945cd4bb3ac9734f9b23117d, type: 3}
  - {fileID: 21300000, guid: 0f81a8993152941d78a56d17027746f1, type: 3}
  - {fileID: 21300000, guid: 6fbf388a5bc3f4c68bb62d6ee37d34a5, type: 3}
  - {fileID: 21300000, guid: fc5683eb98352429599de1cdd751fde3, type: 3}
  - {fileID: 21300000, guid: e72e178dc35c74ed8aacbc2a1c55a9f4, type: 3}
  - {fileID: 21300000, guid: 1e2891adbe6c84071845159105f38eb4, type: 3}
  m_PackedSpriteNamesToIndex:
  - Background Tiles-04
  - 4_Platform 5
  - 4_Block 6
  - 4_Platform 6
  - 4_Tall Block 5
  - 4_Tall Block 6
  - 4_Platform 4
  - 4_Large Block 1
  - 4_Block 7
  - 4_Block 5
  - 4_Block 8
  - 4_Tall Block 4
  m_Tag: Level 4 Sprites
  m_IsVariant: 0
