%YAML 1.1
%TAG !u! tag:unity3d.com,2011:
--- !u!74 &7400000
AnimationClip:
  m_ObjectHideFlags: 0
  m_CorrespondingSourceObject: {fileID: 0}
  m_PrefabInternal: {fileID: 0}
  m_Name: Collectable
  serializedVersion: 6
  m_Legacy: 0
  m_Compressed: 0
  m_UseHighQualityCurve: 1
  m_RotationCurves: []
  m_CompressedRotationCurves: []
  m_EulerCurves: []
  m_PositionCurves: []
  m_ScaleCurves: []
  m_FloatCurves: []
  m_PPtrCurves:
  - curve:
    - time: 0
      value: {fileID: 21300000, guid: e1471b61c6ffd4c64bc67d3d7bc13fcf, type: 3}
    - time: 0.083333336
      value: {fileID: 21300000, guid: e7c9a241780994bcbb6d70015db4fc1e, type: 3}
    - time: 0.16666667
      value: {fileID: 21300000, guid: 846580b1633964fd887f4f1006bef006, type: 3}
    - time: 0.25
      value: {fileID: 21300000, guid: e08623f9cb6154bf9ae130b2a2721e84, type: 3}
    - time: 0.33333334
      value: {fileID: 21300000, guid: d7e23aedc4f264dbcbff9a77303acb7a, type: 3}
    - time: 0.41666666
      value: {fileID: 21300000, guid: 8062f553f58ef4d1ca7396158e68632f, type: 3}
    - time: 0.5
      value: {fileID: 21300000, guid: 989c533533d7640c090bf2e59b774757, type: 3}
    - time: 0.5833333
      value: {fileID: 21300000, guid: ed42ad8c42b2947389165bdfc0adf772, type: 3}
    - time: 0.6666667
      value: {fileID: 21300000, guid: 0416a37037032462b97004350a7fda57, type: 3}
    - time: 0.75
      value: {fileID: 21300000, guid: f723a3cd493c24221ba718d44db7891e, type: 3}
    - time: 0.8333333
      value: {fileID: 21300000, guid: 4aa4c157ffbdc4ac2b111515cafd9c0d, type: 3}
    - time: 0.9166667
      value: {fileID: 21300000, guid: 13135ac82be8a44688186de62ba0c8a0, type: 3}
    - time: 1
      value: {fileID: 21300000, guid: 47d3c03f2befd4cf080ff740450ce8e1, type: 3}
    - time: 1.0833334
      value: {fileID: 21300000, guid: c94de4af712f04850a332a5eb807fae9, type: 3}
    - time: 1.1666666
      value: {fileID: 21300000, guid: 92bb83b0823ad4694b5c2462beaf2262, type: 3}
    - time: 1.25
      value: {fileID: 21300000, guid: d4075368b2fa84c75ad0fae10e339549, type: 3}
    - time: 1.3333334
      value: {fileID: 21300000, guid: 1af6af24657f74a6fb4d4429c658ab84, type: 3}
    - time: 1.4166666
      value: {fileID: 21300000, guid: 0910d45bfda2c41fc91704945950ecb3, type: 3}
    - time: 1.5
      value: {fileID: 21300000, guid: fe12d8c7e0b624054a286bfb5503733e, type: 3}
    - time: 1.5833334
      value: {fileID: 21300000, guid: fcd35bedd01aa44bcbfceacbce8de20e, type: 3}
    - time: 1.6666666
      value: {fileID: 21300000, guid: f9199cad2498f47b58f9d0306f7ee487, type: 3}
    - time: 1.75
      value: {fileID: 21300000, guid: dd79ee3d0307f4fa188120decede2682, type: 3}
    - time: 1.8333334
      value: {fileID: 21300000, guid: 8ab0285165c2c4a1a810fea22e0f0cb5, type: 3}
    - time: 1.9166666
      value: {fileID: 21300000, guid: 1d5ca6f4a533d47cc91787914c6d31c5, type: 3}
    - time: 2
      value: {fileID: 21300000, guid: f89b101cf7b374db0b6345504c8bb477, type: 3}
    - time: 2.0833333
      value: {fileID: 21300000, guid: 143b5165df3324f62a399954284a5c10, type: 3}
    - time: 2.1666667
      value: {fileID: 21300000, guid: c3959f4e1ab05432a9c8f0a22e014d64, type: 3}
    - time: 2.25
      value: {fileID: 21300000, guid: e52ed9373fc454433bd10c209f82c7b2, type: 3}
    - time: 2.3333333
      value: {fileID: 21300000, guid: 407c8550a2a47415c83f4c27132f71ae, type: 3}
    - time: 2.4166667
      value: {fileID: 21300000, guid: 6bced9921cb354913981ecd33ab08109, type: 3}
    - time: 2.5
      value: {fileID: 21300000, guid: 6bced9921cb354913981ecd33ab08109, type: 3}
    - time: 2.5833333
      value: {fileID: 21300000, guid: 6ce90ceacf4a14be2b757f204f314513, type: 3}
    - time: 2.6666667
      value: {fileID: 21300000, guid: 6bced9921cb354913981ecd33ab08109, type: 3}
    - time: 2.75
      value: {fileID: 21300000, guid: 407c8550a2a47415c83f4c27132f71ae, type: 3}
    - time: 2.8333333
      value: {fileID: 21300000, guid: e52ed9373fc454433bd10c209f82c7b2, type: 3}
    - time: 2.9166667
      value: {fileID: 21300000, guid: c3959f4e1ab05432a9c8f0a22e014d64, type: 3}
    - time: 3
      value: {fileID: 21300000, guid: 143b5165df3324f62a399954284a5c10, type: 3}
    - time: 3.0833333
      value: {fileID: 21300000, guid: f89b101cf7b374db0b6345504c8bb477, type: 3}
    - time: 3.1666667
      value: {fileID: 21300000, guid: 1d5ca6f4a533d47cc91787914c6d31c5, type: 3}
    - time: 3.25
      value: {fileID: 21300000, guid: 8ab0285165c2c4a1a810fea22e0f0cb5, type: 3}
    - time: 3.3333333
      value: {fileID: 21300000, guid: dd79ee3d0307f4fa188120decede2682, type: 3}
    - time: 3.4166667
      value: {fileID: 21300000, guid: f9199cad2498f47b58f9d0306f7ee487, type: 3}
    - time: 3.5
      value: {fileID: 21300000, guid: fcd35bedd01aa44bcbfceacbce8de20e, type: 3}
    - time: 3.5833333
      value: {fileID: 21300000, guid: fe12d8c7e0b624054a286bfb5503733e, type: 3}
    - time: 3.6666667
      value: {fileID: 21300000, guid: 0910d45bfda2c41fc91704945950ecb3, type: 3}
    - time: 3.75
      value: {fileID: 21300000, guid: 1af6af24657f74a6fb4d4429c658ab84, type: 3}
    - time: 3.8333333
      value: {fileID: 21300000, guid: d4075368b2fa84c75ad0fae10e339549, type: 3}
    - time: 3.9166667
      value: {fileID: 21300000, guid: 92bb83b0823ad4694b5c2462beaf2262, type: 3}
    - time: 4
      value: {fileID: 21300000, guid: c94de4af712f04850a332a5eb807fae9, type: 3}
    - time: 4.0833335
      value: {fileID: 21300000, guid: 47d3c03f2befd4cf080ff740450ce8e1, type: 3}
    - time: 4.1666665
      value: {fileID: 21300000, guid: 13135ac82be8a44688186de62ba0c8a0, type: 3}
    - time: 4.25
      value: {fileID: 21300000, guid: 4aa4c157ffbdc4ac2b111515cafd9c0d, type: 3}
    - time: 4.3333335
      value: {fileID: 21300000, guid: f723a3cd493c24221ba718d44db7891e, type: 3}
    - time: 4.4166665
      value: {fileID: 21300000, guid: 0416a37037032462b97004350a7fda57, type: 3}
    - time: 4.5
      value: {fileID: 21300000, guid: ed42ad8c42b2947389165bdfc0adf772, type: 3}
    - time: 4.5833335
      value: {fileID: 21300000, guid: 989c533533d7640c090bf2e59b774757, type: 3}
    - time: 4.6666665
      value: {fileID: 21300000, guid: 8062f553f58ef4d1ca7396158e68632f, type: 3}
    - time: 4.75
      value: {fileID: 21300000, guid: d7e23aedc4f264dbcbff9a77303acb7a, type: 3}
    - time: 4.8333335
      value: {fileID: 21300000, guid: e08623f9cb6154bf9ae130b2a2721e84, type: 3}
    - time: 4.9166665
      value: {fileID: 21300000, guid: 846580b1633964fd887f4f1006bef006, type: 3}
    - time: 5
      value: {fileID: 21300000, guid: e7c9a241780994bcbb6d70015db4fc1e, type: 3}
    attribute: m_Sprite
    path: 
    classID: 212
    script: {fileID: 0}
  m_SampleRate: 12
  m_WrapMode: 0
  m_Bounds:
    m_Center: {x: 0, y: 0, z: 0}
    m_Extent: {x: 0, y: 0, z: 0}
  m_ClipBindingConstant:
    genericBindings:
    - serializedVersion: 2
      path: 0
      attribute: 0
      script: {fileID: 0}
      typeID: 212
      customType: 23
      isPPtrCurve: 1
    pptrCurveMapping:
    - {fileID: 21300000, guid: e1471b61c6ffd4c64bc67d3d7bc13fcf, type: 3}
    - {fileID: 21300000, guid: e7c9a241780994bcbb6d70015db4fc1e, type: 3}
    - {fileID: 21300000, guid: 846580b1633964fd887f4f1006bef006, type: 3}
    - {fileID: 21300000, guid: e08623f9cb6154bf9ae130b2a2721e84, type: 3}
    - {fileID: 21300000, guid: d7e23aedc4f264dbcbff9a77303acb7a, type: 3}
    - {fileID: 21300000, guid: 8062f553f58ef4d1ca7396158e68632f, type: 3}
    - {fileID: 21300000, guid: 989c533533d7640c090bf2e59b774757, type: 3}
    - {fileID: 21300000, guid: ed42ad8c42b2947389165bdfc0adf772, type: 3}
    - {fileID: 21300000, guid: 0416a37037032462b97004350a7fda57, type: 3}
    - {fileID: 21300000, guid: f723a3cd493c24221ba718d44db7891e, type: 3}
    - {fileID: 21300000, guid: 4aa4c157ffbdc4ac2b111515cafd9c0d, type: 3}
    - {fileID: 21300000, guid: 13135ac82be8a44688186de62ba0c8a0, type: 3}
    - {fileID: 21300000, guid: 47d3c03f2befd4cf080ff740450ce8e1, type: 3}
    - {fileID: 21300000, guid: c94de4af712f04850a332a5eb807fae9, type: 3}
    - {fileID: 21300000, guid: 92bb83b0823ad4694b5c2462beaf2262, type: 3}
    - {fileID: 21300000, guid: d4075368b2fa84c75ad0fae10e339549, type: 3}
    - {fileID: 21300000, guid: 1af6af24657f74a6fb4d4429c658ab84, type: 3}
    - {fileID: 21300000, guid: 0910d45bfda2c41fc91704945950ecb3, type: 3}
    - {fileID: 21300000, guid: fe12d8c7e0b624054a286bfb5503733e, type: 3}
    - {fileID: 21300000, guid: fcd35bedd01aa44bcbfceacbce8de20e, type: 3}
    - {fileID: 21300000, guid: f9199cad2498f47b58f9d0306f7ee487, type: 3}
    - {fileID: 21300000, guid: dd79ee3d0307f4fa188120decede2682, type: 3}
    - {fileID: 21300000, guid: 8ab0285165c2c4a1a810fea22e0f0cb5, type: 3}
    - {fileID: 21300000, guid: 1d5ca6f4a533d47cc91787914c6d31c5, type: 3}
    - {fileID: 21300000, guid: f89b101cf7b374db0b6345504c8bb477, type: 3}
    - {fileID: 21300000, guid: 143b5165df3324f62a399954284a5c10, type: 3}
    - {fileID: 21300000, guid: c3959f4e1ab05432a9c8f0a22e014d64, type: 3}
    - {fileID: 21300000, guid: e52ed9373fc454433bd10c209f82c7b2, type: 3}
    - {fileID: 21300000, guid: 407c8550a2a47415c83f4c27132f71ae, type: 3}
    - {fileID: 21300000, guid: 6bced9921cb354913981ecd33ab08109, type: 3}
    - {fileID: 21300000, guid: 6bced9921cb354913981ecd33ab08109, type: 3}
    - {fileID: 21300000, guid: 6ce90ceacf4a14be2b757f204f314513, type: 3}
    - {fileID: 21300000, guid: 6bced9921cb354913981ecd33ab08109, type: 3}
    - {fileID: 21300000, guid: 407c8550a2a47415c83f4c27132f71ae, type: 3}
    - {fileID: 21300000, guid: e52ed9373fc454433bd10c209f82c7b2, type: 3}
    - {fileID: 21300000, guid: c3959f4e1ab05432a9c8f0a22e014d64, type: 3}
    - {fileID: 21300000, guid: 143b5165df3324f62a399954284a5c10, type: 3}
    - {fileID: 21300000, guid: f89b101cf7b374db0b6345504c8bb477, type: 3}
    - {fileID: 21300000, guid: 1d5ca6f4a533d47cc91787914c6d31c5, type: 3}
    - {fileID: 21300000, guid: 8ab0285165c2c4a1a810fea22e0f0cb5, type: 3}
    - {fileID: 21300000, guid: dd79ee3d0307f4fa188120decede2682, type: 3}
    - {fileID: 21300000, guid: f9199cad2498f47b58f9d0306f7ee487, type: 3}
    - {fileID: 21300000, guid: fcd35bedd01aa44bcbfceacbce8de20e, type: 3}
    - {fileID: 21300000, guid: fe12d8c7e0b624054a286bfb5503733e, type: 3}
    - {fileID: 21300000, guid: 0910d45bfda2c41fc91704945950ecb3, type: 3}
    - {fileID: 21300000, guid: 1af6af24657f74a6fb4d4429c658ab84, type: 3}
    - {fileID: 21300000, guid: d4075368b2fa84c75ad0fae10e339549, type: 3}
    - {fileID: 21300000, guid: 92bb83b0823ad4694b5c2462beaf2262, type: 3}
    - {fileID: 21300000, guid: c94de4af712f04850a332a5eb807fae9, type: 3}
    - {fileID: 21300000, guid: 47d3c03f2befd4cf080ff740450ce8e1, type: 3}
    - {fileID: 21300000, guid: 13135ac82be8a44688186de62ba0c8a0, type: 3}
    - {fileID: 21300000, guid: 4aa4c157ffbdc4ac2b111515cafd9c0d, type: 3}
    - {fileID: 21300000, guid: f723a3cd493c24221ba718d44db7891e, type: 3}
    - {fileID: 21300000, guid: 0416a37037032462b97004350a7fda57, type: 3}
    - {fileID: 21300000, guid: ed42ad8c42b2947389165bdfc0adf772, type: 3}
    - {fileID: 21300000, guid: 989c533533d7640c090bf2e59b774757, type: 3}
    - {fileID: 21300000, guid: 8062f553f58ef4d1ca7396158e68632f, type: 3}
    - {fileID: 21300000, guid: d7e23aedc4f264dbcbff9a77303acb7a, type: 3}
    - {fileID: 21300000, guid: e08623f9cb6154bf9ae130b2a2721e84, type: 3}
    - {fileID: 21300000, guid: 846580b1633964fd887f4f1006bef006, type: 3}
    - {fileID: 21300000, guid: e7c9a241780994bcbb6d70015db4fc1e, type: 3}
  m_AnimationClipSettings:
    serializedVersion: 2
    m_AdditiveReferencePoseClip: {fileID: 0}
    m_AdditiveReferencePoseTime: 0
    m_StartTime: 0
    m_StopTime: 5.0833335
    m_OrientationOffsetY: 0
    m_Level: 0
    m_CycleOffset: 0
    m_HasAdditiveReferencePose: 0
    m_LoopTime: 1
    m_LoopBlend: 0
    m_LoopBlendOrientation: 0
    m_LoopBlendPositionY: 0
    m_LoopBlendPositionXZ: 0
    m_KeepOriginalOrientation: 0
    m_KeepOriginalPositionY: 1
    m_KeepOriginalPositionXZ: 0
    m_HeightFromFeet: 0
    m_Mirror: 0
  m_EditorCurves: []
  m_EulerEditorCurves: []
  m_HasGenericRootTransform: 0
  m_HasMotionFloatCurves: 0
  m_GenerateMotionCurves: 0
  m_Events: []
