%YAML 1.1
%TAG !u! tag:unity3d.com,2011:
--- !u!687078895 &4343727234628468602
SpriteAtlas:
  m_ObjectHideFlags: 0
  m_CorrespondingSourceObject: {fileID: 0}
  m_PrefabInstance: {fileID: 0}
  m_PrefabAsset: {fileID: 0}
  m_Name: Consistent Hazards
  m_EditorData:
    serializedVersion: 2
    textureSettings:
      serializedVersion: 2
      anisoLevel: 1
      compressionQuality: 50
      maxTextureSize: 2048
      textureCompression: 0
      filterMode: 1
      generateMipMaps: 0
      readable: 0
      crunchedCompression: 0
      sRGB: 1
    platformSettings:
    - serializedVersion: 2
      m_BuildTarget: DefaultTexturePlatform
      m_MaxTextureSize: 512
      m_ResizeAlgorithm: 0
      m_TextureFormat: -1
      m_TextureCompression: 1
      m_CompressionQuality: 50
      m_CrunchedCompression: 0
      m_AllowsAlphaSplitting: 0
      m_Overridden: 0
      m_AndroidETC2FallbackOverride: 0
    packingSettings:
      serializedVersion: 2
      padding: 4
      blockOffset: 1
      allowAlphaSplitting: 0
      enableRotation: 1
      enableTightPacking: 1
    variantMultiplier: 1
    packables:
    - {fileID: 102900000, guid: e4d5917bd826f4522bb6b23569fe3d64, type: 3}
    - {fileID: 102900000, guid: 14de651d0beb640c4b668eddad2c5cd9, type: 3}
    - {fileID: 102900000, guid: 075c05fbadb504e3f9a43286be34d12f, type: 3}
    - {fileID: 102900000, guid: d799ef61b5b5c428f871fcacdd37d7f6, type: 3}
    - {fileID: 102900000, guid: 0c88432179fa44aa1a038e2adc6c38ff, type: 3}
    - {fileID: 102900000, guid: ad442be6537454e07a6e5a9e7125ea2c, type: 3}
    - {fileID: 102900000, guid: 6d090047a473f4e21a4a7add7edab101, type: 3}
    - {fileID: 102900000, guid: 0b44a08eff2e14d6bb02181b8cc0faee, type: 3}
    - {fileID: 102900000, guid: 78c4ba7b348aa46da9b549ad70278182, type: 3}
    - {fileID: 102900000, guid: f66387162dd8f4235afbcd3caca20f23, type: 3}
    totalSpriteSurfaceArea: 8481048
    bindAsDefault: 1
  m_MasterAtlas: {fileID: 0}
  m_PackedSprites:
  - {fileID: 21300000, guid: c19829108557249c88a8e87bec91618b, type: 3}
  - {fileID: 21300000, guid: e3933c30ea2c94fc5a62b431e1ed882d, type: 3}
  - {fileID: 21300000, guid: 21486d307b0bd424caed8f10c0aadc7d, type: 3}
  - {fileID: 21300000, guid: 5400a45099f8e41c4a3385e9d0909c08, type: 3}
  - {fileID: 21300000, guid: 6d248c50387b94519b4897fddc732e3f, type: 3}
  - {fileID: 21300000, guid: ab79a690eb7f84ec3be4ceb3cb7c90b1, type: 3}
  - {fileID: 21300000, guid: bedf59a0ff6d645c6a363af44c34edfa, type: 3}
  - {fileID: 21300000, guid: 6abbfeb06d5ef4c00afbf545fc4da35b, type: 3}
  - {fileID: 21300000, guid: 8cc793c099cae46f1ab3acae1e9a4a05, type: 3}
  - {fileID: 21300000, guid: 2048a3c05d486418996088e2f4c048a1, type: 3}
  - {fileID: 21300000, guid: b8bbede04c6a34be9adcb6cc2a18fd53, type: 3}
  - {fileID: 21300000, guid: 947b633192ce94e03a32e18365a306fb, type: 3}
  - {fileID: 21300000, guid: e839db31df73e4939bc829332e666dfb, type: 3}
  - {fileID: 21300000, guid: 1f942e31943874a3698476c262811ca7, type: 3}
  - {fileID: 21300000, guid: bc0976414bd2449a580b993ed2198f8d, type: 3}
  - {fileID: 21300000, guid: 0788f861c2015418cb29b7e4eb9c5e61, type: 3}
  - {fileID: 21300000, guid: 338f82814752d44478dfce9fcfddae9c, type: 3}
  - {fileID: 21300000, guid: 4708d9816c788455c92804e656a37cc4, type: 3}
  - {fileID: 21300000, guid: e9ca21a10eca04d659942e72541439fc, type: 3}
  - {fileID: 21300000, guid: 4a5e9da1e0ca74ab887d3635adf38c11, type: 3}
  - {fileID: 21300000, guid: 96a080c1ecd2d491aadc656d1be6710e, type: 3}
  - {fileID: 21300000, guid: 2c771be169e954e1a9144b5de76b275f, type: 3}
  - {fileID: 21300000, guid: 5da7b6f19e2684c9cbf1ddc761f07262, type: 3}
  - {fileID: 21300000, guid: 9262cb022f41e4de6a90106fd1b0d91a, type: 3}
  - {fileID: 21300000, guid: 8a28be121fd5f43db9fc6f3dcec13247, type: 3}
  - {fileID: 21300000, guid: b6a28122cda414cdf95d61b47598e7d2, type: 3}
  - {fileID: 21300000, guid: ee1e1932b337a42ac84f1018dbf5cb15, type: 3}
  - {fileID: 21300000, guid: 4bb8fc32add244d7da72a88ee4fce905, type: 3}
  - {fileID: 21300000, guid: ddaa93428aa444fe2beee23da9d564e7, type: 3}
  - {fileID: 21300000, guid: 32b04052bb0eb49d190bdfd77f30707e, type: 3}
  - {fileID: 21300000, guid: 823b927205ecb4371a8aa1e7a473d9b3, type: 3}
  - {fileID: 21300000, guid: 566a60a25ced24fdfbf12e0fdc2be129, type: 3}
  - {fileID: 21300000, guid: 762b1aa2d01cf4fd3b592d7e6f46325f, type: 3}
  - {fileID: 21300000, guid: c26f5da23eae7453f8059d89a7aafd45, type: 3}
  - {fileID: 21300000, guid: 7c584cb2620e14ba2b4bbef0185fe740, type: 3}
  - {fileID: 21300000, guid: 12ce9cb21e7074bff9b1bb07d7c87cc8, type: 3}
  - {fileID: 21300000, guid: 71fc85d2ba7ad4c3fb816ef491e14d2f, type: 3}
  - {fileID: 21300000, guid: 8a620ad206be34ebe9f7fee44d4bb8ea, type: 3}
  - {fileID: 21300000, guid: 85c759e22a5c649e78e181f4f2db06b0, type: 3}
  - {fileID: 21300000, guid: 9259c6f20e8ec40668e75a035081a8b9, type: 3}
  - {fileID: 21300000, guid: 3689f4238b22c4dcbbbe25be82be8095, type: 3}
  - {fileID: 21300000, guid: 388cc6235c05942beb80f977ca7c5bb6, type: 3}
  - {fileID: 21300000, guid: ee19782382f4041daba06865d7a4ab71, type: 3}
  - {fileID: 21300000, guid: 414bce23a225e42929c2f1341f4648ec, type: 3}
  - {fileID: 21300000, guid: 2ca61633ab85944f48d129bdd030fab4, type: 3}
  - {fileID: 21300000, guid: deb138339ef6542e4a5507d7c5fdc606, type: 3}
  - {fileID: 21300000, guid: 5e066d93fb29d4cbdbb35e75055b2965, type: 3}
  - {fileID: 21300000, guid: 61ce75d3f33354eeea46b7e54e469c09, type: 3}
  - {fileID: 21300000, guid: 86853bd34726444f191eae6a90e90d74, type: 3}
  - {fileID: 21300000, guid: d4971cd31efa34c6daea92a6702dba04, type: 3}
  - {fileID: 21300000, guid: 71e16fd377be04117891db6b9dfdc975, type: 3}
  - {fileID: 21300000, guid: 22c6fae3ce9774f75b839df13f9a94a3, type: 3}
  - {fileID: 21300000, guid: eca9dbe3655b947a8a3370eadad4ebe4, type: 3}
  - {fileID: 21300000, guid: 78e5f1f36fbe445f7b965a8318951923, type: 3}
  - {fileID: 21300000, guid: b4efe614b9e464fabbc8865e3d275602, type: 3}
  - {fileID: 21300000, guid: 5dc374242806e4b3eaff0a6c3356e113, type: 3}
  - {fileID: 21300000, guid: b18abc24470454844b39e4723459c4a1, type: 3}
  - {fileID: 21300000, guid: ceab1d5432644435085c213ee5c92f89, type: 3}
  - {fileID: 21300000, guid: afb86d540d44c4706ad74eeeea155056, type: 3}
  - {fileID: 21300000, guid: 51e97474acb094b0782fa60976f719ae, type: 3}
  - {fileID: 21300000, guid: 0c0f1e748056444c38dc08dd9a91f7ce, type: 3}
  - {fileID: 21300000, guid: 77e4f29416cc64d2188695de4b4d5d93, type: 3}
  - {fileID: 21300000, guid: f8612894d93ba4a688870f6be795d14b, type: 3}
  - {fileID: 21300000, guid: 70f17ea47760c4b7d8f26708ae772d21, type: 3}
  - {fileID: 21300000, guid: ae8070c463bd242b49d9ec8214a7055e, type: 3}
  - {fileID: 21300000, guid: 6b1be9c4105164685b44014755dc6ebd, type: 3}
  - {fileID: 21300000, guid: e28fa0d422e1440949aa18c8e6387d1e, type: 3}
  - {fileID: 21300000, guid: ffd794f434f0a4cda9276ddc1353379f, type: 3}
  - {fileID: 21300000, guid: 617d86f45e6c44d77907b9da3daa16c9, type: 3}
  - {fileID: 21300000, guid: 4c07f205aacdb4a409fd03568663288f, type: 3}
  - {fileID: 21300000, guid: de499415280874f46aebc27f2848faaf, type: 3}
  - {fileID: 21300000, guid: 936f9d25a30974917913488b7ac910ae, type: 3}
  - {fileID: 21300000, guid: 019041453290a47cfb241f0b15bb2e68, type: 3}
  - {fileID: 21300000, guid: de7b24454b3204162abadf89c9c41632, type: 3}
  - {fileID: 21300000, guid: 565dea45de08c4a03ab56918a33b5a51, type: 3}
  - {fileID: 21300000, guid: 8c4fc255c60d94c69a010ec3ba84a50a, type: 3}
  - {fileID: 21300000, guid: 4134a3553efa5489680d506118a85ce5, type: 3}
  - {fileID: 21300000, guid: 09b779552ae66451ca284cbea5831227, type: 3}
  - {fileID: 21300000, guid: 9b12c16550a52485ca8e795dbb40bf62, type: 3}
  - {fileID: 21300000, guid: c15ff9754be2c4063ba702c849ca84ef, type: 3}
  - {fileID: 21300000, guid: f7746b753533a48d29436aa4710125d4, type: 3}
  - {fileID: 21300000, guid: ed58de75df2e245f1b32d0dd40dca436, type: 3}
  - {fileID: 21300000, guid: e7ed7395aba084f17b870051fb568430, type: 3}
  - {fileID: 21300000, guid: f7529695ab7de4061a2e5f402b04f25b, type: 3}
  - {fileID: 21300000, guid: df8e08a5658474ebfb615b329da16938, type: 3}
  - {fileID: 21300000, guid: ec3f5aa534baf4d88b5eedbde3688b2a, type: 3}
  - {fileID: 21300000, guid: 24d5eea5c0fd24825ba25e6856a44d4c, type: 3}
  - {fileID: 21300000, guid: cc7d1ab5eb5b04a42b42a46e3927939a, type: 3}
  - {fileID: 21300000, guid: 3c04ebb553d974f7dbb7cd2e55e942e4, type: 3}
  - {fileID: 21300000, guid: fbe8adb5239944a3da7b6a69be213e06, type: 3}
  - {fileID: 21300000, guid: 3484b7e5b934d42d3984ce1aa68b6d1e, type: 3}
  - {fileID: 21300000, guid: 800ce2f54fc7245a09c1b891bfb87ff0, type: 3}
  - {fileID: 21300000, guid: eda649066d6524c63b0804b4073251f4, type: 3}
  - {fileID: 21300000, guid: 8ed2c746004ec4f0a9824d9d79b08446, type: 3}
  - {fileID: 21300000, guid: 31688b567989147929ba29bee25b6190, type: 3}
  - {fileID: 21300000, guid: f80d8b76549ea4762b87fcb84f8a043e, type: 3}
  - {fileID: 21300000, guid: b9f92986c15a043a991cef439d9e7212, type: 3}
  - {fileID: 21300000, guid: 8ed49a86276e84f179915b1c706be275, type: 3}
  - {fileID: 21300000, guid: e13d2296c1dcf47f59f7c033675c9fa2, type: 3}
  - {fileID: 21300000, guid: 0a5f8c966562549dc9dd5719224cf25a, type: 3}
  - {fileID: 21300000, guid: df4c23a6820e94378904098456703550, type: 3}
  - {fileID: 21300000, guid: e694bca683f0d4495aebc1ebab3d4ee1, type: 3}
  - {fileID: 21300000, guid: 2343b5b6c5f8448d8a9fbfa428f7983e, type: 3}
  - {fileID: 21300000, guid: 4cad4cc6154d5416a9687514b057cd05, type: 3}
  - {fileID: 21300000, guid: 220677d6d7a1b42178c51fac3d37dde9, type: 3}
  - {fileID: 21300000, guid: 266c67470f7264d5bb9dff86b40adce5, type: 3}
  - {fileID: 21300000, guid: 64cb2257c53554255b28d0ef44a8498c, type: 3}
  - {fileID: 21300000, guid: 69e96fb7f0efe46128c32fea94bec399, type: 3}
  - {fileID: 21300000, guid: d03209d7d2d1b42c4ac4769e60e55fd1, type: 3}
  - {fileID: 21300000, guid: da25cad72ae6f413c9bddd9c8022cb5d, type: 3}
  - {fileID: 21300000, guid: 59f304f7bd2124145a4490bede546d47, type: 3}
  - {fileID: 21300000, guid: db01fe48cbcb54d449e7bec27510bfc3, type: 3}
  - {fileID: 21300000, guid: ceea655800e0c4ae788bb625b8b0efdb, type: 3}
  - {fileID: 21300000, guid: f2cbc958103434419a0b959e62eca249, type: 3}
  - {fileID: 21300000, guid: bf049f588136b4b2880ea1155336921d, type: 3}
  - {fileID: 21300000, guid: ef08c168c8fa447fb8852302ee674529, type: 3}
  - {fileID: 21300000, guid: 29b5f4789c8e044949c563fcc440a320, type: 3}
  - {fileID: 21300000, guid: 66422a78e0ab34ec89b4ffb0c1167f68, type: 3}
  - {fileID: 21300000, guid: 533e40a8fe50f4bda9196a42083a71bf, type: 3}
  - {fileID: 21300000, guid: ca1e78a8e3bc94d0aae3b372a10b6d58, type: 3}
  - {fileID: 21300000, guid: 6a0381b8e506146bda7c63f54f720ee6, type: 3}
  - {fileID: 21300000, guid: da4531c85a4124d7a9fdde3dc0b077cc, type: 3}
  - {fileID: 21300000, guid: 98bab1f8dc8524511b504db40a06d89a, type: 3}
  - {fileID: 21300000, guid: 8b4572f811b8245338fa84435a7699f2, type: 3}
  - {fileID: 21300000, guid: 8155821988040445e9205c16812c937e, type: 3}
  - {fileID: 21300000, guid: 2c94a8190920c42be8167380f9b2c03d, type: 3}
  - {fileID: 21300000, guid: e5dfca19539f648adbd7062afc46dd7d, type: 3}
  - {fileID: 21300000, guid: 75850869d8fc34cf3ad0b75865f26d41, type: 3}
  - {fileID: 21300000, guid: 08417b6935ed9409b95284763f5ac5dd, type: 3}
  - {fileID: 21300000, guid: d6439c693784e4da2810bb5fcd4f7df8, type: 3}
  - {fileID: 21300000, guid: e3a2ff89f11314572bd169f9120987d6, type: 3}
  - {fileID: 21300000, guid: ef7aaab974cfa4d568e54763b7419049, type: 3}
  - {fileID: 21300000, guid: 45befeb9a1d644f6789cf9e19b828521, type: 3}
  - {fileID: 21300000, guid: 801ec4d9c4b0b470286085fd774dd9be, type: 3}
  - {fileID: 21300000, guid: f1d8f6d9b715c4665bfd14889ef1d9b7, type: 3}
  - {fileID: 21300000, guid: 7f322d0abde864acb83fa03013928eb3, type: 3}
  - {fileID: 21300000, guid: 8d60222a0b72442d9af2ffe389b82310, type: 3}
  - {fileID: 21300000, guid: d775532a4bf554c619a80eb825773b44, type: 3}
  - {fileID: 21300000, guid: e3d0463abe1274ea6a264b86eb0703b8, type: 3}
  - {fileID: 21300000, guid: c4f1a07a96a8b400da0ed69a59c7727b, type: 3}
  - {fileID: 21300000, guid: a95d618ab794c44d093ea068ef1c9c2d, type: 3}
  - {fileID: 21300000, guid: dd7c868ad82fe4d41b0e17ed8280954b, type: 3}
  - {fileID: 21300000, guid: 0f7c9a9a586aa4bdab3d86e999e9267d, type: 3}
  - {fileID: 21300000, guid: afac11ba0130c4b0ab3766a93e3e95d8, type: 3}
  - {fileID: 21300000, guid: a72399ea6f2ac43348718944f040cfee, type: 3}
  - {fileID: 21300000, guid: 328a7bea30b0247c5872f13c4160a788, type: 3}
  - {fileID: 21300000, guid: d108beea0ff0d44c3a27deb549c53111, type: 3}
  - {fileID: 21300000, guid: 402331fa060a84df78f1e9efdd5b81ae, type: 3}
  - {fileID: 21300000, guid: 8e4fa60b8f2614782bd185a73bb7b43b, type: 3}
  - {fileID: 21300000, guid: b734ba0b7252d4333bd096b3cab9c458, type: 3}
  - {fileID: 21300000, guid: 16dc852bc64ce4ebabc9fbe8f7675b74, type: 3}
  - {fileID: 21300000, guid: 75278a2b9011f4528ab252e23818b121, type: 3}
  - {fileID: 21300000, guid: b638f13bf7627426d903b6c32b4b095f, type: 3}
  - {fileID: 21300000, guid: 23a9194b2aecd4ce785c2d8140fdd80e, type: 3}
  - {fileID: 21300000, guid: 48ae0a4b35e2f4790b3985cdc2d0ab15, type: 3}
  - {fileID: 21300000, guid: 337ef86b0d6f54e1ca42c551f174fed2, type: 3}
  - {fileID: 21300000, guid: 2e6c179bfb5ca450b8e78ad162544ab1, type: 3}
  - {fileID: 21300000, guid: e476c9db25094432a989b3a53455b74e, type: 3}
  - {fileID: 21300000, guid: f6c81aeb88ef74e81941f90c53a7e9bc, type: 3}
  - {fileID: 21300000, guid: a9bf6afb0776646aeb201c2f01434120, type: 3}
  - {fileID: 21300000, guid: 95f5321c9b16349008f98b4770aaf44e, type: 3}
  - {fileID: 21300000, guid: f446532c98ed74b379f02631fa6f3a16, type: 3}
  - {fileID: 21300000, guid: bb01a52c975c3444f9a53c17904f57cf, type: 3}
  - {fileID: 21300000, guid: c874b62c887f146019adde803f9b09c9, type: 3}
  - {fileID: 21300000, guid: 69ba1f3c812f64d0282ff9e82ee8447f, type: 3}
  - {fileID: 21300000, guid: 6474397cd7b6a435190bf68dfcdb212e, type: 3}
  - {fileID: 21300000, guid: ac77bd9c1a25d41e3a6f7bbe7ad8283e, type: 3}
  - {fileID: 21300000, guid: 4a925eac43fae4d0f99c5ba3202fe13a, type: 3}
  - {fileID: 21300000, guid: dd4635bcd9eea445fb486e469038170c, type: 3}
  - {fileID: 21300000, guid: 50a678dc09a764e2c8e17f48f5ff8078, type: 3}
  - {fileID: 21300000, guid: ee326edc4dd6744f1abf7651caaeda77, type: 3}
  - {fileID: 21300000, guid: b4e285ec7800e45c5aa79249d99391e7, type: 3}
  - {fileID: 21300000, guid: 13ad07fc2639d4fc18fb4250bd3c762b, type: 3}
  - {fileID: 21300000, guid: 5f585ffc622c24e52a8864e1ac882b7a, type: 3}
  - {fileID: 21300000, guid: 6114a01d5819148728a5289ebf096738, type: 3}
  - {fileID: 21300000, guid: df1c022d1fc4045f18ba5bd503fa3c97, type: 3}
  - {fileID: 21300000, guid: e98e852d4a8874bf4b2cb7bfbeafc715, type: 3}
  - {fileID: 21300000, guid: 9e58653db983d41b99a63f2c6bfd2484, type: 3}
  - {fileID: 21300000, guid: bcdb196da778b4264b1ccb79235546d4, type: 3}
  - {fileID: 21300000, guid: 7927ef7db8b574195bd874ad3b700f8c, type: 3}
  - {fileID: 21300000, guid: b7d8de8d802bd4650aba02e87cc9ce3d, type: 3}
  - {fileID: 21300000, guid: c4751d9d152d04cecb8759754eb67bce, type: 3}
  - {fileID: 21300000, guid: 53c645bda9ad149128f4e0b234408da8, type: 3}
  - {fileID: 21300000, guid: 22f5accd507de48488ec59fd9fe2d1d7, type: 3}
  - {fileID: 21300000, guid: 8cc79cdde059a48678cd17cda0502f7f, type: 3}
  - {fileID: 21300000, guid: 271b381e33f0444768b40d027da56a9d, type: 3}
  - {fileID: 21300000, guid: ee296a2ec50244d999e28d72f93e6374, type: 3}
  - {fileID: 21300000, guid: 17da8e2ed47bf496ba30d4b305aa17f6, type: 3}
  - {fileID: 21300000, guid: 74857a4e115b947199b245669fa93383, type: 3}
  - {fileID: 21300000, guid: 46a58d4ed122e4c9495e817498939dc2, type: 3}
  - {fileID: 21300000, guid: 7ed9cc8e15f30485fb43648d15affb9e, type: 3}
  - {fileID: 21300000, guid: ae73d1ce1a1ac40b1966ac530aa68fb0, type: 3}
  - {fileID: 21300000, guid: 1959e7cef0e704c009b8b86ed1a81849, type: 3}
  - {fileID: 21300000, guid: 527667deeb9ec468792f1af9820f86ed, type: 3}
  - {fileID: 21300000, guid: 9fb04e1fa7d634858995925315aed44c, type: 3}
  - {fileID: 21300000, guid: f8aea42f360334e03bc4ce667b2d997c, type: 3}
  - {fileID: 21300000, guid: 9dc4b42f2a86e4f01ae3a3bb9a0cd526, type: 3}
  - {fileID: 21300000, guid: 3d57793f81bb743c8a410ddc8b320f06, type: 3}
  - {fileID: 21300000, guid: de67e66f1589f4650b6a07dbe478ff0f, type: 3}
  - {fileID: 21300000, guid: 4ed37c6f1733d4018b4ccf8b4baa43e3, type: 3}
  - {fileID: 21300000, guid: 0dce858f4a4284a19a49155860b5fb89, type: 3}
  - {fileID: 21300000, guid: f9113baf6e85649abbc2ada6460dd8ce, type: 3}
  - {fileID: 21300000, guid: f3b7cdaf3524c4f679d22a87738dfa10, type: 3}
  - {fileID: 21300000, guid: 58b85eafcd1db449ebf1ac84f6431074, type: 3}
  - {fileID: 21300000, guid: f6cdaacfad75c4aa59d71207fec70e37, type: 3}
  - {fileID: 21300000, guid: 7a50aeef0165a49fbaf408edfe780b7c, type: 3}
  - {fileID: 21300000, guid: ca7cffff1a0ac48368a6185fbe97376f, type: 3}
  m_PackedSpriteNamesToIndex:
  - Level 3 Spike Trap Down_00025
  - ' Laser Trap_00116'
  - ' Laser Trap_00074'
  - Level 4  Spike Trap Up_00016
  - Level 4  Spike Trap Up_00028
  - Level 4  Spike Trap Up_00025
  - ' Laser Trap Out_00000'
  - Level 4 Spike Trap Down_00000 copy
  - Level 4  Spike Trap Up_00036
  - Level 3 Spike Trap Down_00001
  - Level 3 Spike Trap Down_00013
  - ' Laser Trap_00090'
  - Level 3 Spike Trap Down_00010
  - ' Laser Trap_00104'
  - ' Laser Trap Out_00007'
  - ' Laser Trap Out_00009'
  - Level 4  Spike Trap Up_00042
  - Level 4  Spike Trap Up_00053
  - Level 4  Spike Trap Up_00045
  - ' Laser Trap Out_00034'
  - Level 4  Spike Trap Up_00059
  - Level 4  Spike Trap Up_00015
  - ' Laser Trap_00026'
  - ' Laser Trap_00078'
  - Level 3 Spike Trap Down_00023
  - ' Laser Trap_00006'
  - Level 4  Spike Trap Up_00004
  - ' Laser Trap_00034'
  - Level 3 Spike Trap Down_00004
  - ' Laser Trap_00112'
  - ' Laser Trap Out_00013'
  - Level 4  Spike Trap Up_00000
  - Level 3 Spike Trap Up_00000
  - ' Laser Trap_00102'
  - Level 4  Spike Trap Up_00041
  - ' Laser Trap Out_00019'
  - ' Laser Trap_00058'
  - ' Laser Trap_00080'
  - ' Laser Trap_00046'
  - ' Laser Trap_00042'
  - Level 4  Spike Trap Up_00040
  - ' Laser Trap Out_00025'
  - ' Laser Trap_00010'
  - Level 3 Spike Trap Down_00027
  - Level 4  Spike Trap Up_00039
  - Level 4  Spike Trap Up_00012
  - ' Laser Trap Out_00010'
  - ' Laser Trap Out_00030'
  - Level 4  Spike Trap Up_00032
  - ' Laser Trap_00030'
  - ' Laser Trap_00000'
  - Level 3 Spike Trap Up_00089
  - Level 4  Spike Trap Up_00005
  - ' Laser Trap Out_00035'
  - Level 4  Spike Trap Up_00034
  - ' Laser Trap Out_00012'
  - Level 3 Spike Trap Down_00022
  - ' Laser Trap Out_00029'
  - ' Laser Trap Out_00020'
  - ' Laser Trap_00048'
  - ' Laser Trap Out_00033'
  - Level 4  Spike Trap Up_00031
  - Level 4  Spike Trap Up_00003
  - Level 3 Spike Trap Down_00007
  - Level 4  Spike Trap Up_00018
  - ' Laser Trap_00036'
  - Level 4  Spike Trap Up_00006
  - Level 3 Spike Trap Down_00019
  - Level 3 Spike Trap Down_00000
  - ' Laser Trap_00050'
  - ' Laser Trap_00100'
  - ' Laser Trap Out_00028'
  - Level 4  Spike Trap Up_00057
  - ' Laser Trap_00066'
  - ' Laser Trap_00060'
  - Level 3 Spike Trap Down_00014
  - ' Laser Trap_00062'
  - ' Laser Trap_00040'
  - Level 3 Spike Trap Down_00006
  - Level 4  Spike Trap Up_00017
  - ' Laser Trap Out_00044'
  - Level 4  Spike Trap Up_00029
  - ' Laser Trap_00002'
  - ' Laser Trap_00056'
  - ' Laser Trap_00088'
  - ' Laser Trap_00004'
  - Level 4  Spike Trap Up_00056
  - Level 4  Spike Trap Up_00013
  - ' Laser Trap_00082'
  - ' Laser Trap_00038'
  - Level 4  Spike Trap Up_00030
  - Level 3 Spike Trap Down_00012
  - Level 4  Spike Trap Up_00033
  - ' Laser Trap Out_00006'
  - Level 3 Spike Trap Down_00002
  - Level 3 Spike Trap Down_00018
  - Level 4  Spike Trap Up_00054
  - ' Laser Trap_00068'
  - Level 4  Spike Trap Up_00010
  - Level 4  Spike Trap Up_00008
  - ' Laser Trap Out_00041'
  - Level 4  Spike Trap Up_00046
  - ' Laser Trap_00044'
  - ' Laser Trap_00064'
  - ' Laser Trap Out_00018'
  - Level 3 Spike Trap Down_00026
  - Level 3 Spike Trap Down_00021
  - Level 3 Spike Trap Down_00008
  - ' Laser Trap Out_00017'
  - ' Laser Trap_00000 1'
  - ' Laser Trap_00114'
  - ' Laser Trap Out_00014'
  - Level 3 Spike Trap Down_00024
  - ' Laser Trap Out_00036'
  - Level 4  Spike Trap Up_00051
  - ' Laser Trap Out_00001'
  - Level 4  Spike Trap Up_00000
  - Level 4 Spike Trap Down_00000
  - Level 3 Spike Trap Down_00009
  - Level 4  Spike Trap Up_00014
  - ' Laser Trap_00016'
  - ' Laser Trap Out_00016'
  - ' Laser Trap_00032'
  - ' Laser Trap_00024'
  - Level 4  Spike Trap Up_00035
  - Level 3 Spike Trap Down_00016
  - Level 4  Spike Trap Up_00043
  - ' Laser Trap_00108'
  - Level 3 Spike Trap Down_00005
  - ' Laser Trap Out_00002'
  - ' Laser Trap Out_00042'
  - ' Laser Trap Out_00026'
  - Iperbot Projectile
  - ' Laser Trap Out_00032'
  - Level 3 Spike Trap Down_00017
  - ' Laser Trap Out_00022'
  - ' Laser Trap_00018'
  - ' Laser Trap_00110'
  - ' Laser Trap Out_00003'
  - ' Laser Trap_00020'
  - ' Laser Trap_00092'
  - Level 4  Spike Trap Up_00011
  - ' Laser Trap Out_00023'
  - Level 4  Spike Trap Up_00007
  - Level 4  Spike Trap Up_00000 copy
  - ' Laser Trap_00022'
  - ' Laser Trap Out_00040'
  - Level 3 Spike Trap Up_00089 copy
  - ' Laser Trap Out_00039'
  - ' Laser Trap_00076'
  - Level 4  Spike Trap Up_00001
  - ' Laser Trap Out_00038'
  - Level 4  Spike Trap Up_00022
  - Level 4  Spike Trap Up_00047
  - ' Laser Trap_00084'
  - Level 3 Spike Trap Down_00003
  - ' Laser Trap Out_00043'
  - Level 4  Spike Trap Up_00020
  - Level 3 Spike Trap Down_00029
  - ' Laser Trap Out_00004'
  - ' Laser Trap_00000'
  - Level 4  Spike Trap Up_00049
  - Level 4  Spike Trap Up_00038
  - ' Laser Trap Out_00031'
  - ' Laser Trap Out_00015'
  - Level 3 Spike Trap Down_00020
  - ' Laser Trap Out_00027'
  - Level 3 Spike Trap Down_00011
  - ' Laser Trap_00106'
  - Level 4  Spike Trap Up_00026
  - ' Laser Trap_00054'
  - ' Laser Trap_00086'
  - Level 3 Spike Trap Up_00000 copy
  - ' Laser Trap Out_00008'
  - Level 4  Spike Trap Up_00019
  - Level 4  Spike Trap Up_00050
  - Level 4  Spike Trap Up_00037
  - ' Laser Trap_00098'
  - Projectile
  - ' Laser Trap_00014'
  - ' Laser Trap_00028'
  - Level 4  Spike Trap Up_00055
  - ' Laser Trap Out_00011'
  - ' Laser Trap_00094'
  - Level 3 Spike Trap Down_00015
  - ' Laser Trap_00008'
  - Level 4  Spike Trap Up_00044
  - Level 4  Spike Trap Up_00052
  - ' Laser Trap Out_00024'
  - Level 4  Spike Trap Up_00024
  - ' Laser Trap Out_00005'
  - ' Laser Trap_00096'
  - ' Laser Trap Out_00037'
  - Level 4  Spike Trap Up_00027
  - Level 4  Spike Trap Up_00058
  - ' Laser Trap_00012'
  - Level 4  Spike Trap Up_00002
  - Level 4  Spike Trap Up_00021
  - Level 4  Spike Trap Up_00009
  - ' Laser Trap_00072'
  - ' Laser Trap_00118'
  - ' Laser Trap Out_00021'
  - Level 4  Spike Trap Up_00023
  - Level 3 Spike Trap Down_00028
  - ' Laser Trap_00070'
  - ' Laser Trap_00052'
  - Level 4  Spike Trap Up_00048
  m_Tag: Consistent Hazards
  m_IsVariant: 0
