%YAML 1.1
%TAG !u! tag:unity3d.com,2011:
--- !u!74 &7400000
AnimationClip:
  m_ObjectHideFlags: 0
  m_CorrespondingSourceObject: {fileID: 0}
  m_PrefabInternal: {fileID: 0}
  m_Name: IperBotDash
  serializedVersion: 6
  m_Legacy: 0
  m_Compressed: 0
  m_UseHighQualityCurve: 1
  m_RotationCurves: []
  m_CompressedRotationCurves: []
  m_EulerCurves: []
  m_PositionCurves: []
  m_ScaleCurves: []
  m_FloatCurves: []
  m_PPtrCurves:
  - curve:
    - time: 0
      value: {fileID: 21300000, guid: 38d92507c448f44cd917ae07c7a1d390, type: 3}
    - time: 0.083333336
      value: {fileID: 21300000, guid: 2c303c268394a4c71bd1a42c3bc9de23, type: 3}
    - time: 0.16666667
      value: {fileID: 21300000, guid: 102a83395047d42eeb1cbe69c7372c82, type: 3}
    - time: 0.25
      value: {fileID: 21300000, guid: 858575c2aeccd4568826eddae89439b6, type: 3}
    - time: 0.33333334
      value: {fileID: 21300000, guid: 8f0b754ccaa114709a6b771393389717, type: 3}
    - time: 0.41666666
      value: {fileID: 21300000, guid: c4d6ad0e08d1d4e41894944fd243af27, type: 3}
    - time: 0.5
      value: {fileID: 21300000, guid: 160e9c74315934f829afa1cf54d97f1f, type: 3}
    - time: 0.5833333
      value: {fileID: 21300000, guid: 356e25ce099804f18a8b07505647492b, type: 3}
    - time: 0.6666667
      value: {fileID: 21300000, guid: 1f22991dfa8ca4e4aa5717cf6ea60c6b, type: 3}
    - time: 0.75
      value: {fileID: 21300000, guid: 70e8d5410a83c49c7a23eb3abf97dea0, type: 3}
    - time: 0.8333333
      value: {fileID: 21300000, guid: 9ca9c31a4d3814083a6b46a89a3a768b, type: 3}
    - time: 0.9166667
      value: {fileID: 21300000, guid: ae11e4c7a85344f5aa5e32af7ed0274f, type: 3}
    - time: 1
      value: {fileID: 21300000, guid: 487b09e682d0b4321890771ae397e3d2, type: 3}
    - time: 1.0833334
      value: {fileID: 21300000, guid: 4e2a12d398137440aa517c3fa19493d6, type: 3}
    - time: 1.1666666
      value: {fileID: 21300000, guid: ac755463eaa064a94a803301c291de47, type: 3}
    - time: 1.25
      value: {fileID: 21300000, guid: cc0547dbfcdb548a5873c0271a8781a7, type: 3}
    - time: 1.3333334
      value: {fileID: 21300000, guid: ac755463eaa064a94a803301c291de47, type: 3}
    - time: 1.4166666
      value: {fileID: 21300000, guid: 4e2a12d398137440aa517c3fa19493d6, type: 3}
    - time: 1.5
      value: {fileID: 21300000, guid: 487b09e682d0b4321890771ae397e3d2, type: 3}
    - time: 1.5833334
      value: {fileID: 21300000, guid: ae11e4c7a85344f5aa5e32af7ed0274f, type: 3}
    - time: 1.6666666
      value: {fileID: 21300000, guid: 9ca9c31a4d3814083a6b46a89a3a768b, type: 3}
    - time: 1.75
      value: {fileID: 21300000, guid: 70e8d5410a83c49c7a23eb3abf97dea0, type: 3}
    - time: 1.8333334
      value: {fileID: 21300000, guid: 1f22991dfa8ca4e4aa5717cf6ea60c6b, type: 3}
    - time: 1.9166666
      value: {fileID: 21300000, guid: 356e25ce099804f18a8b07505647492b, type: 3}
    - time: 2
      value: {fileID: 21300000, guid: 160e9c74315934f829afa1cf54d97f1f, type: 3}
    - time: 2.0833333
      value: {fileID: 21300000, guid: c4d6ad0e08d1d4e41894944fd243af27, type: 3}
    - time: 2.1666667
      value: {fileID: 21300000, guid: 8f0b754ccaa114709a6b771393389717, type: 3}
    - time: 2.25
      value: {fileID: 21300000, guid: 858575c2aeccd4568826eddae89439b6, type: 3}
    - time: 2.3333333
      value: {fileID: 21300000, guid: 102a83395047d42eeb1cbe69c7372c82, type: 3}
    - time: 2.4166667
      value: {fileID: 21300000, guid: 2c303c268394a4c71bd1a42c3bc9de23, type: 3}
    - time: 2.5
      value: {fileID: 21300000, guid: 38d92507c448f44cd917ae07c7a1d390, type: 3}
    attribute: m_Sprite
    path: 
    classID: 212
    script: {fileID: 0}
  m_SampleRate: 12
  m_WrapMode: 0
  m_Bounds:
    m_Center: {x: 0, y: 0, z: 0}
    m_Extent: {x: 0, y: 0, z: 0}
  m_ClipBindingConstant:
    genericBindings:
    - serializedVersion: 2
      path: 0
      attribute: 0
      script: {fileID: 0}
      typeID: 212
      customType: 23
      isPPtrCurve: 1
    pptrCurveMapping:
    - {fileID: 21300000, guid: 38d92507c448f44cd917ae07c7a1d390, type: 3}
    - {fileID: 21300000, guid: 2c303c268394a4c71bd1a42c3bc9de23, type: 3}
    - {fileID: 21300000, guid: 102a83395047d42eeb1cbe69c7372c82, type: 3}
    - {fileID: 21300000, guid: 858575c2aeccd4568826eddae89439b6, type: 3}
    - {fileID: 21300000, guid: 8f0b754ccaa114709a6b771393389717, type: 3}
    - {fileID: 21300000, guid: c4d6ad0e08d1d4e41894944fd243af27, type: 3}
    - {fileID: 21300000, guid: 160e9c74315934f829afa1cf54d97f1f, type: 3}
    - {fileID: 21300000, guid: 356e25ce099804f18a8b07505647492b, type: 3}
    - {fileID: 21300000, guid: 1f22991dfa8ca4e4aa5717cf6ea60c6b, type: 3}
    - {fileID: 21300000, guid: 70e8d5410a83c49c7a23eb3abf97dea0, type: 3}
    - {fileID: 21300000, guid: 9ca9c31a4d3814083a6b46a89a3a768b, type: 3}
    - {fileID: 21300000, guid: ae11e4c7a85344f5aa5e32af7ed0274f, type: 3}
    - {fileID: 21300000, guid: 487b09e682d0b4321890771ae397e3d2, type: 3}
    - {fileID: 21300000, guid: 4e2a12d398137440aa517c3fa19493d6, type: 3}
    - {fileID: 21300000, guid: ac755463eaa064a94a803301c291de47, type: 3}
    - {fileID: 21300000, guid: cc0547dbfcdb548a5873c0271a8781a7, type: 3}
    - {fileID: 21300000, guid: ac755463eaa064a94a803301c291de47, type: 3}
    - {fileID: 21300000, guid: 4e2a12d398137440aa517c3fa19493d6, type: 3}
    - {fileID: 21300000, guid: 487b09e682d0b4321890771ae397e3d2, type: 3}
    - {fileID: 21300000, guid: ae11e4c7a85344f5aa5e32af7ed0274f, type: 3}
    - {fileID: 21300000, guid: 9ca9c31a4d3814083a6b46a89a3a768b, type: 3}
    - {fileID: 21300000, guid: 70e8d5410a83c49c7a23eb3abf97dea0, type: 3}
    - {fileID: 21300000, guid: 1f22991dfa8ca4e4aa5717cf6ea60c6b, type: 3}
    - {fileID: 21300000, guid: 356e25ce099804f18a8b07505647492b, type: 3}
    - {fileID: 21300000, guid: 160e9c74315934f829afa1cf54d97f1f, type: 3}
    - {fileID: 21300000, guid: c4d6ad0e08d1d4e41894944fd243af27, type: 3}
    - {fileID: 21300000, guid: 8f0b754ccaa114709a6b771393389717, type: 3}
    - {fileID: 21300000, guid: 858575c2aeccd4568826eddae89439b6, type: 3}
    - {fileID: 21300000, guid: 102a83395047d42eeb1cbe69c7372c82, type: 3}
    - {fileID: 21300000, guid: 2c303c268394a4c71bd1a42c3bc9de23, type: 3}
    - {fileID: 21300000, guid: 38d92507c448f44cd917ae07c7a1d390, type: 3}
  m_AnimationClipSettings:
    serializedVersion: 2
    m_AdditiveReferencePoseClip: {fileID: 0}
    m_AdditiveReferencePoseTime: 0
    m_StartTime: 0
    m_StopTime: 2.5833333
    m_OrientationOffsetY: 0
    m_Level: 0
    m_CycleOffset: 0
    m_HasAdditiveReferencePose: 0
    m_LoopTime: 1
    m_LoopBlend: 0
    m_LoopBlendOrientation: 0
    m_LoopBlendPositionY: 0
    m_LoopBlendPositionXZ: 0
    m_KeepOriginalOrientation: 0
    m_KeepOriginalPositionY: 1
    m_KeepOriginalPositionXZ: 0
    m_HeightFromFeet: 0
    m_Mirror: 0
  m_EditorCurves: []
  m_EulerEditorCurves: []
  m_HasGenericRootTransform: 0
  m_HasMotionFloatCurves: 0
  m_GenerateMotionCurves: 0
  m_Events: []
