%YAML 1.1
%TAG !u! tag:unity3d.com,2011:
--- !u!74 &7400000
AnimationClip:
  m_ObjectHideFlags: 0
  m_PrefabParentObject: {fileID: 0}
  m_PrefabInternal: {fileID: 0}
  m_Name: IperBotGlide
  serializedVersion: 6
  m_Legacy: 0
  m_Compressed: 0
  m_UseHighQualityCurve: 1
  m_RotationCurves: []
  m_CompressedRotationCurves: []
  m_EulerCurves: []
  m_PositionCurves: []
  m_ScaleCurves: []
  m_FloatCurves:
  - curve:
      serializedVersion: 2
      m_Curve:
      - serializedVersion: 3
        time: 0
        value: 0.0004903376
        inSlope: 0
        outSlope: 0
        tangentMode: 136
        weightedMode: 0
        inWeight: 0
        outWeight: 0
      m_PreInfinity: 2
      m_PostInfinity: 2
      m_RotationOrder: 4
    attribute: m_Offset.x
    path: 
    classID: 61
    script: {fileID: 0}
  - curve:
      serializedVersion: 2
      m_Curve:
      - serializedVersion: 3
        time: 0
        value: 0.87250847
        inSlope: 0
        outSlope: 0
        tangentMode: 136
        weightedMode: 0
        inWeight: 0
        outWeight: 0
      m_PreInfinity: 2
      m_PostInfinity: 2
      m_RotationOrder: 4
    attribute: m_Size.x
    path: 
    classID: 61
    script: {fileID: 0}
  - curve:
      serializedVersion: 2
      m_Curve:
      - serializedVersion: 3
        time: 0
        value: 0.38845646
        inSlope: 0
        outSlope: 0
        tangentMode: 136
        weightedMode: 0
        inWeight: 0
        outWeight: 0
      m_PreInfinity: 2
      m_PostInfinity: 2
      m_RotationOrder: 4
    attribute: m_Offset.y
    path: 
    classID: 61
    script: {fileID: 0}
  - curve:
      serializedVersion: 2
      m_Curve:
      - serializedVersion: 3
        time: 0
        value: 1.4344003
        inSlope: 0
        outSlope: 0
        tangentMode: 136
        weightedMode: 0
        inWeight: 0
        outWeight: 0
      m_PreInfinity: 2
      m_PostInfinity: 2
      m_RotationOrder: 4
    attribute: m_Size.y
    path: 
    classID: 61
    script: {fileID: 0}
  m_PPtrCurves:
  - curve:
    - time: 0
      value: {fileID: 21300000, guid: 547b86ec1b481463a92257606913d3cb, type: 3}
    - time: 0.083333336
      value: {fileID: 21300000, guid: f7d968119c921419d8bbdb314f8c60f2, type: 3}
    - time: 0.16666667
      value: {fileID: 21300000, guid: 160a8460a6b7043f180575c78d75243c, type: 3}
    - time: 0.25
      value: {fileID: 21300000, guid: 688ee280b04de436e84e873d1bafe1fb, type: 3}
    - time: 0.33333334
      value: {fileID: 21300000, guid: 22f08ee399bc646a0a80ec5d3cc2bf77, type: 3}
    - time: 0.41666666
      value: {fileID: 21300000, guid: 22cabc18d57c84503b4de59d09a683f5, type: 3}
    - time: 0.5
      value: {fileID: 21300000, guid: 75d0864d949e149c68db52a025c35c2d, type: 3}
    - time: 0.5833333
      value: {fileID: 21300000, guid: 9bc74c81302584c878c10a81728c5f63, type: 3}
    - time: 0.6666667
      value: {fileID: 21300000, guid: 167ceccd0552840859daf4c84e12023d, type: 3}
    - time: 0.75
      value: {fileID: 21300000, guid: 608028e2d736a477eb568ad0fe00a78c, type: 3}
    - time: 0.8333333
      value: {fileID: 21300000, guid: b003e30664eb8453284b7eba2330cfa6, type: 3}
    - time: 0.9166667
      value: {fileID: 21300000, guid: 3f6e938b8520849fcb5c7edb68d242c4, type: 3}
    - time: 1
      value: {fileID: 21300000, guid: 034dd0827abf647e9ac0b80f5e66ff29, type: 3}
    - time: 1.0833334
      value: {fileID: 21300000, guid: 9319dc54dcc9640f3ac80842d743570b, type: 3}
    - time: 1.1666666
      value: {fileID: 21300000, guid: ffe960097ec604290b95fae8b20e4a54, type: 3}
    - time: 1.25
      value: {fileID: 21300000, guid: f198326b02be04d2cb3127646de982bb, type: 3}
    - time: 1.3333334
      value: {fileID: 21300000, guid: 5a791126c64e44cc3b11adfb5ea06fef, type: 3}
    - time: 1.4166666
      value: {fileID: 21300000, guid: 56050c9cbb38f4d0e98e43cdc9bdc310, type: 3}
    - time: 1.5
      value: {fileID: 21300000, guid: ad121b35502674ab9aa9cd3414a670fe, type: 3}
    - time: 1.5833334
      value: {fileID: 21300000, guid: 6e394cca83f314bc399d22d9d78ed050, type: 3}
    - time: 1.6666666
      value: {fileID: 21300000, guid: cd3b697a6ed69493ca8ad2b410b164e1, type: 3}
    - time: 1.75
      value: {fileID: 21300000, guid: c1a09d0502a464be0b44152470cf1560, type: 3}
    - time: 1.8333334
      value: {fileID: 21300000, guid: 53d5433d6bb2a4170b5e0ec737c113d1, type: 3}
    - time: 1.9166666
      value: {fileID: 21300000, guid: f7bf7ebbc51e3442d86791638f4a7f9c, type: 3}
    - time: 2
      value: {fileID: 21300000, guid: 26849990b2ede47f982591e016fda821, type: 3}
    - time: 2.0833333
      value: {fileID: 21300000, guid: cdf42238f0c97497082daecf6b8bd7cf, type: 3}
    - time: 2.1666667
      value: {fileID: 21300000, guid: cd16780b291514ac9b820ea15e8b61c9, type: 3}
    - time: 2.25
      value: {fileID: 21300000, guid: 091ff470466c942769ad94ef330690d0, type: 3}
    - time: 2.3333333
      value: {fileID: 21300000, guid: 53c7ddd511abf4b33900926f7efcebd9, type: 3}
    - time: 2.4166667
      value: {fileID: 21300000, guid: 12a41b55f7b974921936e2e63ef0a09b, type: 3}
    - time: 2.5
      value: {fileID: 21300000, guid: 52aeb8df6018643ad9dbeb521f136653, type: 3}
    - time: 2.5833333
      value: {fileID: 21300000, guid: 8636e91361f704298a8899d2059ff49a, type: 3}
    - time: 2.6666667
      value: {fileID: 21300000, guid: 61eedadcd674242758523decff0252c1, type: 3}
    - time: 2.75
      value: {fileID: 21300000, guid: b372afb4d247a4d088f43832857d7ca4, type: 3}
    - time: 2.8333333
      value: {fileID: 21300000, guid: ee6f53623da944205b41c9b1b1986327, type: 3}
    - time: 2.9166667
      value: {fileID: 21300000, guid: f559fc98f75b549019efdf4fa6701f0c, type: 3}
    - time: 3
      value: {fileID: 21300000, guid: 794290b0ea9014169b7a0cbac62dd48d, type: 3}
    - time: 3.0833333
      value: {fileID: 21300000, guid: 3aa565e743496428baee0195da487cf9, type: 3}
    - time: 3.1666667
      value: {fileID: 21300000, guid: f459ea9ee5cba49199f321036897db5e, type: 3}
    - time: 3.25
      value: {fileID: 21300000, guid: 8c7a12fea777046f0a79312261bd8805, type: 3}
    - time: 3.3333333
      value: {fileID: 21300000, guid: 9980426a73d034b699406d9892f39144, type: 3}
    - time: 3.4166667
      value: {fileID: 21300000, guid: b215a1d1b2dfd4575ade864f3611b876, type: 3}
    - time: 3.5
      value: {fileID: 21300000, guid: 3591cc75872f34b22bc6b1b6594b0a6e, type: 3}
    - time: 3.5833333
      value: {fileID: 21300000, guid: aa63c3105388947198d53054170e79ea, type: 3}
    - time: 3.6666667
      value: {fileID: 21300000, guid: addc060c1d9204b7c948eb1c93cc2fc8, type: 3}
    - time: 3.75
      value: {fileID: 21300000, guid: b67a0813d41db469c85048bcf0b6be8e, type: 3}
    - time: 3.8333333
      value: {fileID: 21300000, guid: 3551d376dd712423e91c9faf96a783da, type: 3}
    - time: 3.9166667
      value: {fileID: 21300000, guid: eb7c19a15db4242dab205a615e2e851e, type: 3}
    - time: 4
      value: {fileID: 21300000, guid: 94cc5ca2eae7342bcb1a1193052fc10d, type: 3}
    - time: 4.0833335
      value: {fileID: 21300000, guid: 8d0c521e8dff94fb0be92f52dc62f8b4, type: 3}
    - time: 4.1666665
      value: {fileID: 21300000, guid: 27e950b2d0aa74c0cb0d1a7c2e66933e, type: 3}
    - time: 4.25
      value: {fileID: 21300000, guid: 0268ccb5e8d1048d88a732088e74b567, type: 3}
    - time: 4.3333335
      value: {fileID: 21300000, guid: 70e042725333944778aa97c5088575e9, type: 3}
    - time: 4.4166665
      value: {fileID: 21300000, guid: 39371c61ed1bb496c9bc609e39c66e3b, type: 3}
    - time: 4.5
      value: {fileID: 21300000, guid: 067ade6f5205343a18f95be2e9a65cdb, type: 3}
    - time: 4.5833335
      value: {fileID: 21300000, guid: a5a2dd0d9aadc4a938f1656b92d5babd, type: 3}
    - time: 4.6666665
      value: {fileID: 21300000, guid: aca7f50b289cc4cdf87667368b58cf2d, type: 3}
    - time: 4.75
      value: {fileID: 21300000, guid: c491ec48c606a491295b47aa7bc3aeab, type: 3}
    - time: 4.8333335
      value: {fileID: 21300000, guid: 04df68bcdf0c9420c9c293f53d9d1a86, type: 3}
    - time: 4.9166665
      value: {fileID: 21300000, guid: 7e04c55d77d7d41c4927b31bac2391d1, type: 3}
    attribute: m_Sprite
    path: 
    classID: 212
    script: {fileID: 0}
  m_SampleRate: 12
  m_WrapMode: 0
  m_Bounds:
    m_Center: {x: 0, y: 0, z: 0}
    m_Extent: {x: 0, y: 0, z: 0}
  m_ClipBindingConstant:
    genericBindings:
    - serializedVersion: 2
      path: 0
      attribute: 0
      script: {fileID: 0}
      typeID: 212
      customType: 23
      isPPtrCurve: 1
    - serializedVersion: 2
      path: 0
      attribute: 413499720
      script: {fileID: 0}
      typeID: 61
      customType: 0
      isPPtrCurve: 0
    - serializedVersion: 2
      path: 0
      attribute: 4197328169
      script: {fileID: 0}
      typeID: 61
      customType: 0
      isPPtrCurve: 0
    - serializedVersion: 2
      path: 0
      attribute: 1872933342
      script: {fileID: 0}
      typeID: 61
      customType: 0
      isPPtrCurve: 0
    - serializedVersion: 2
      path: 0
      attribute: 2368279999
      script: {fileID: 0}
      typeID: 61
      customType: 0
      isPPtrCurve: 0
    pptrCurveMapping:
    - {fileID: 21300000, guid: 547b86ec1b481463a92257606913d3cb, type: 3}
    - {fileID: 21300000, guid: f7d968119c921419d8bbdb314f8c60f2, type: 3}
    - {fileID: 21300000, guid: 160a8460a6b7043f180575c78d75243c, type: 3}
    - {fileID: 21300000, guid: 688ee280b04de436e84e873d1bafe1fb, type: 3}
    - {fileID: 21300000, guid: 22f08ee399bc646a0a80ec5d3cc2bf77, type: 3}
    - {fileID: 21300000, guid: 22cabc18d57c84503b4de59d09a683f5, type: 3}
    - {fileID: 21300000, guid: 75d0864d949e149c68db52a025c35c2d, type: 3}
    - {fileID: 21300000, guid: 9bc74c81302584c878c10a81728c5f63, type: 3}
    - {fileID: 21300000, guid: 167ceccd0552840859daf4c84e12023d, type: 3}
    - {fileID: 21300000, guid: 608028e2d736a477eb568ad0fe00a78c, type: 3}
    - {fileID: 21300000, guid: b003e30664eb8453284b7eba2330cfa6, type: 3}
    - {fileID: 21300000, guid: 3f6e938b8520849fcb5c7edb68d242c4, type: 3}
    - {fileID: 21300000, guid: 034dd0827abf647e9ac0b80f5e66ff29, type: 3}
    - {fileID: 21300000, guid: 9319dc54dcc9640f3ac80842d743570b, type: 3}
    - {fileID: 21300000, guid: ffe960097ec604290b95fae8b20e4a54, type: 3}
    - {fileID: 21300000, guid: f198326b02be04d2cb3127646de982bb, type: 3}
    - {fileID: 21300000, guid: 5a791126c64e44cc3b11adfb5ea06fef, type: 3}
    - {fileID: 21300000, guid: 56050c9cbb38f4d0e98e43cdc9bdc310, type: 3}
    - {fileID: 21300000, guid: ad121b35502674ab9aa9cd3414a670fe, type: 3}
    - {fileID: 21300000, guid: 6e394cca83f314bc399d22d9d78ed050, type: 3}
    - {fileID: 21300000, guid: cd3b697a6ed69493ca8ad2b410b164e1, type: 3}
    - {fileID: 21300000, guid: c1a09d0502a464be0b44152470cf1560, type: 3}
    - {fileID: 21300000, guid: 53d5433d6bb2a4170b5e0ec737c113d1, type: 3}
    - {fileID: 21300000, guid: f7bf7ebbc51e3442d86791638f4a7f9c, type: 3}
    - {fileID: 21300000, guid: 26849990b2ede47f982591e016fda821, type: 3}
    - {fileID: 21300000, guid: cdf42238f0c97497082daecf6b8bd7cf, type: 3}
    - {fileID: 21300000, guid: cd16780b291514ac9b820ea15e8b61c9, type: 3}
    - {fileID: 21300000, guid: 091ff470466c942769ad94ef330690d0, type: 3}
    - {fileID: 21300000, guid: 53c7ddd511abf4b33900926f7efcebd9, type: 3}
    - {fileID: 21300000, guid: 12a41b55f7b974921936e2e63ef0a09b, type: 3}
    - {fileID: 21300000, guid: 52aeb8df6018643ad9dbeb521f136653, type: 3}
    - {fileID: 21300000, guid: 8636e91361f704298a8899d2059ff49a, type: 3}
    - {fileID: 21300000, guid: 61eedadcd674242758523decff0252c1, type: 3}
    - {fileID: 21300000, guid: b372afb4d247a4d088f43832857d7ca4, type: 3}
    - {fileID: 21300000, guid: ee6f53623da944205b41c9b1b1986327, type: 3}
    - {fileID: 21300000, guid: f559fc98f75b549019efdf4fa6701f0c, type: 3}
    - {fileID: 21300000, guid: 794290b0ea9014169b7a0cbac62dd48d, type: 3}
    - {fileID: 21300000, guid: 3aa565e743496428baee0195da487cf9, type: 3}
    - {fileID: 21300000, guid: f459ea9ee5cba49199f321036897db5e, type: 3}
    - {fileID: 21300000, guid: 8c7a12fea777046f0a79312261bd8805, type: 3}
    - {fileID: 21300000, guid: 9980426a73d034b699406d9892f39144, type: 3}
    - {fileID: 21300000, guid: b215a1d1b2dfd4575ade864f3611b876, type: 3}
    - {fileID: 21300000, guid: 3591cc75872f34b22bc6b1b6594b0a6e, type: 3}
    - {fileID: 21300000, guid: aa63c3105388947198d53054170e79ea, type: 3}
    - {fileID: 21300000, guid: addc060c1d9204b7c948eb1c93cc2fc8, type: 3}
    - {fileID: 21300000, guid: b67a0813d41db469c85048bcf0b6be8e, type: 3}
    - {fileID: 21300000, guid: 3551d376dd712423e91c9faf96a783da, type: 3}
    - {fileID: 21300000, guid: eb7c19a15db4242dab205a615e2e851e, type: 3}
    - {fileID: 21300000, guid: 94cc5ca2eae7342bcb1a1193052fc10d, type: 3}
    - {fileID: 21300000, guid: 8d0c521e8dff94fb0be92f52dc62f8b4, type: 3}
    - {fileID: 21300000, guid: 27e950b2d0aa74c0cb0d1a7c2e66933e, type: 3}
    - {fileID: 21300000, guid: 0268ccb5e8d1048d88a732088e74b567, type: 3}
    - {fileID: 21300000, guid: 70e042725333944778aa97c5088575e9, type: 3}
    - {fileID: 21300000, guid: 39371c61ed1bb496c9bc609e39c66e3b, type: 3}
    - {fileID: 21300000, guid: 067ade6f5205343a18f95be2e9a65cdb, type: 3}
    - {fileID: 21300000, guid: a5a2dd0d9aadc4a938f1656b92d5babd, type: 3}
    - {fileID: 21300000, guid: aca7f50b289cc4cdf87667368b58cf2d, type: 3}
    - {fileID: 21300000, guid: c491ec48c606a491295b47aa7bc3aeab, type: 3}
    - {fileID: 21300000, guid: 04df68bcdf0c9420c9c293f53d9d1a86, type: 3}
    - {fileID: 21300000, guid: 7e04c55d77d7d41c4927b31bac2391d1, type: 3}
  m_AnimationClipSettings:
    serializedVersion: 2
    m_AdditiveReferencePoseClip: {fileID: 0}
    m_AdditiveReferencePoseTime: 0
    m_StartTime: 0
    m_StopTime: 5
    m_OrientationOffsetY: 0
    m_Level: 0
    m_CycleOffset: 0
    m_HasAdditiveReferencePose: 0
    m_LoopTime: 1
    m_LoopBlend: 0
    m_LoopBlendOrientation: 0
    m_LoopBlendPositionY: 0
    m_LoopBlendPositionXZ: 0
    m_KeepOriginalOrientation: 0
    m_KeepOriginalPositionY: 1
    m_KeepOriginalPositionXZ: 0
    m_HeightFromFeet: 0
    m_Mirror: 0
  m_EditorCurves:
  - curve:
      serializedVersion: 2
      m_Curve:
      - serializedVersion: 3
        time: 0
        value: 0.0004903376
        inSlope: 0
        outSlope: 0
        tangentMode: 136
        weightedMode: 0
        inWeight: 0
        outWeight: 0
      m_PreInfinity: 2
      m_PostInfinity: 2
      m_RotationOrder: 4
    attribute: m_Offset.x
    path: 
    classID: 61
    script: {fileID: 0}
  - curve:
      serializedVersion: 2
      m_Curve:
      - serializedVersion: 3
        time: 0
        value: 0.87250847
        inSlope: 0
        outSlope: 0
        tangentMode: 136
        weightedMode: 0
        inWeight: 0
        outWeight: 0
      m_PreInfinity: 2
      m_PostInfinity: 2
      m_RotationOrder: 4
    attribute: m_Size.x
    path: 
    classID: 61
    script: {fileID: 0}
  - curve:
      serializedVersion: 2
      m_Curve:
      - serializedVersion: 3
        time: 0
        value: 0.38845646
        inSlope: 0
        outSlope: 0
        tangentMode: 136
        weightedMode: 0
        inWeight: 0
        outWeight: 0
      m_PreInfinity: 2
      m_PostInfinity: 2
      m_RotationOrder: 4
    attribute: m_Offset.y
    path: 
    classID: 61
    script: {fileID: 0}
  - curve:
      serializedVersion: 2
      m_Curve:
      - serializedVersion: 3
        time: 0
        value: 1.4344003
        inSlope: 0
        outSlope: 0
        tangentMode: 136
        weightedMode: 0
        inWeight: 0
        outWeight: 0
      m_PreInfinity: 2
      m_PostInfinity: 2
      m_RotationOrder: 4
    attribute: m_Size.y
    path: 
    classID: 61
    script: {fileID: 0}
  m_EulerEditorCurves: []
  m_HasGenericRootTransform: 0
  m_HasMotionFloatCurves: 0
  m_GenerateMotionCurves: 0
  m_Events: []
