%YAML 1.1
%TAG !u! tag:unity3d.com,2011:
--- !u!74 &7400000
AnimationClip:
  m_ObjectHideFlags: 0
  m_CorrespondingSourceObject: {fileID: 0}
  m_PrefabInternal: {fileID: 0}
  m_Name: IperBotWingsInProgress
  serializedVersion: 6
  m_Legacy: 0
  m_Compressed: 0
  m_UseHighQualityCurve: 1
  m_RotationCurves: []
  m_CompressedRotationCurves: []
  m_EulerCurves: []
  m_PositionCurves: []
  m_ScaleCurves: []
  m_FloatCurves: []
  m_PPtrCurves:
  - curve:
    - time: 0
      value: {fileID: 21300000, guid: 5a372ace83ba1452c839d6dbe7479435, type: 3}
    - time: 0.083333336
      value: {fileID: 21300000, guid: 0f65754f1c46947f0987672c494b8c11, type: 3}
    - time: 0.16666667
      value: {fileID: 21300000, guid: 56a180a38210a464588a9b6c8b269a8e, type: 3}
    - time: 0.25
      value: {fileID: 21300000, guid: cc3bd0bfe57ff44fc99bb90888ab2b8d, type: 3}
    - time: 0.33333334
      value: {fileID: 21300000, guid: a2e1596991b6243f3af5dbe9db501704, type: 3}
    - time: 0.41666666
      value: {fileID: 21300000, guid: 86149fe0f8cc04c95ba4f98c40905ede, type: 3}
    - time: 0.5
      value: {fileID: 21300000, guid: 0d622768e42d943bd86f33869824da2e, type: 3}
    - time: 0.5833333
      value: {fileID: 21300000, guid: f07942487773f4ba9a405d5dd030cfaf, type: 3}
    - time: 0.6666667
      value: {fileID: 21300000, guid: 3685afbae179343c4b325c6b76e95749, type: 3}
    - time: 0.75
      value: {fileID: 21300000, guid: 1e6ce8c603aa8418b8125470dbdfa999, type: 3}
    - time: 0.8333333
      value: {fileID: 21300000, guid: 0226f00d580d447de9f8faabaf30ea41, type: 3}
    - time: 0.9166667
      value: {fileID: 21300000, guid: 311df50c30e1043068908ccb5a8efda4, type: 3}
    - time: 1
      value: {fileID: 21300000, guid: d5c5244449a664ce8bcd7627a340cd72, type: 3}
    - time: 1.0833334
      value: {fileID: 21300000, guid: 1f26a02ba60204323ae6b7ef34db482e, type: 3}
    - time: 1.1666666
      value: {fileID: 21300000, guid: 6775116a546144772b3357cbc9e46b2d, type: 3}
    - time: 1.25
      value: {fileID: 21300000, guid: 47e9b61af812b4350be8149a9b6e7a70, type: 3}
    - time: 1.3333334
      value: {fileID: 21300000, guid: 6775116a546144772b3357cbc9e46b2d, type: 3}
    - time: 1.4166666
      value: {fileID: 21300000, guid: 1f26a02ba60204323ae6b7ef34db482e, type: 3}
    - time: 1.5
      value: {fileID: 21300000, guid: d5c5244449a664ce8bcd7627a340cd72, type: 3}
    - time: 1.5833334
      value: {fileID: 21300000, guid: 311df50c30e1043068908ccb5a8efda4, type: 3}
    - time: 1.6666666
      value: {fileID: 21300000, guid: 0226f00d580d447de9f8faabaf30ea41, type: 3}
    - time: 1.75
      value: {fileID: 21300000, guid: 1e6ce8c603aa8418b8125470dbdfa999, type: 3}
    - time: 1.8333334
      value: {fileID: 21300000, guid: 3685afbae179343c4b325c6b76e95749, type: 3}
    - time: 1.9166666
      value: {fileID: 21300000, guid: f07942487773f4ba9a405d5dd030cfaf, type: 3}
    - time: 2
      value: {fileID: 21300000, guid: 0d622768e42d943bd86f33869824da2e, type: 3}
    - time: 2.0833333
      value: {fileID: 21300000, guid: 86149fe0f8cc04c95ba4f98c40905ede, type: 3}
    - time: 2.1666667
      value: {fileID: 21300000, guid: a2e1596991b6243f3af5dbe9db501704, type: 3}
    - time: 2.25
      value: {fileID: 21300000, guid: cc3bd0bfe57ff44fc99bb90888ab2b8d, type: 3}
    - time: 2.3333333
      value: {fileID: 21300000, guid: 56a180a38210a464588a9b6c8b269a8e, type: 3}
    - time: 2.4166667
      value: {fileID: 21300000, guid: 0f65754f1c46947f0987672c494b8c11, type: 3}
    - time: 2.5
      value: {fileID: 21300000, guid: 5a372ace83ba1452c839d6dbe7479435, type: 3}
    attribute: m_Sprite
    path: 
    classID: 212
    script: {fileID: 0}
  m_SampleRate: 12
  m_WrapMode: 0
  m_Bounds:
    m_Center: {x: 0, y: 0, z: 0}
    m_Extent: {x: 0, y: 0, z: 0}
  m_ClipBindingConstant:
    genericBindings:
    - serializedVersion: 2
      path: 0
      attribute: 0
      script: {fileID: 0}
      typeID: 212
      customType: 23
      isPPtrCurve: 1
    pptrCurveMapping:
    - {fileID: 21300000, guid: 5a372ace83ba1452c839d6dbe7479435, type: 3}
    - {fileID: 21300000, guid: 0f65754f1c46947f0987672c494b8c11, type: 3}
    - {fileID: 21300000, guid: 56a180a38210a464588a9b6c8b269a8e, type: 3}
    - {fileID: 21300000, guid: cc3bd0bfe57ff44fc99bb90888ab2b8d, type: 3}
    - {fileID: 21300000, guid: a2e1596991b6243f3af5dbe9db501704, type: 3}
    - {fileID: 21300000, guid: 86149fe0f8cc04c95ba4f98c40905ede, type: 3}
    - {fileID: 21300000, guid: 0d622768e42d943bd86f33869824da2e, type: 3}
    - {fileID: 21300000, guid: f07942487773f4ba9a405d5dd030cfaf, type: 3}
    - {fileID: 21300000, guid: 3685afbae179343c4b325c6b76e95749, type: 3}
    - {fileID: 21300000, guid: 1e6ce8c603aa8418b8125470dbdfa999, type: 3}
    - {fileID: 21300000, guid: 0226f00d580d447de9f8faabaf30ea41, type: 3}
    - {fileID: 21300000, guid: 311df50c30e1043068908ccb5a8efda4, type: 3}
    - {fileID: 21300000, guid: d5c5244449a664ce8bcd7627a340cd72, type: 3}
    - {fileID: 21300000, guid: 1f26a02ba60204323ae6b7ef34db482e, type: 3}
    - {fileID: 21300000, guid: 6775116a546144772b3357cbc9e46b2d, type: 3}
    - {fileID: 21300000, guid: 47e9b61af812b4350be8149a9b6e7a70, type: 3}
    - {fileID: 21300000, guid: 6775116a546144772b3357cbc9e46b2d, type: 3}
    - {fileID: 21300000, guid: 1f26a02ba60204323ae6b7ef34db482e, type: 3}
    - {fileID: 21300000, guid: d5c5244449a664ce8bcd7627a340cd72, type: 3}
    - {fileID: 21300000, guid: 311df50c30e1043068908ccb5a8efda4, type: 3}
    - {fileID: 21300000, guid: 0226f00d580d447de9f8faabaf30ea41, type: 3}
    - {fileID: 21300000, guid: 1e6ce8c603aa8418b8125470dbdfa999, type: 3}
    - {fileID: 21300000, guid: 3685afbae179343c4b325c6b76e95749, type: 3}
    - {fileID: 21300000, guid: f07942487773f4ba9a405d5dd030cfaf, type: 3}
    - {fileID: 21300000, guid: 0d622768e42d943bd86f33869824da2e, type: 3}
    - {fileID: 21300000, guid: 86149fe0f8cc04c95ba4f98c40905ede, type: 3}
    - {fileID: 21300000, guid: a2e1596991b6243f3af5dbe9db501704, type: 3}
    - {fileID: 21300000, guid: cc3bd0bfe57ff44fc99bb90888ab2b8d, type: 3}
    - {fileID: 21300000, guid: 56a180a38210a464588a9b6c8b269a8e, type: 3}
    - {fileID: 21300000, guid: 0f65754f1c46947f0987672c494b8c11, type: 3}
    - {fileID: 21300000, guid: 5a372ace83ba1452c839d6dbe7479435, type: 3}
  m_AnimationClipSettings:
    serializedVersion: 2
    m_AdditiveReferencePoseClip: {fileID: 0}
    m_AdditiveReferencePoseTime: 0
    m_StartTime: 0
    m_StopTime: 2.5833333
    m_OrientationOffsetY: 0
    m_Level: 0
    m_CycleOffset: 0
    m_HasAdditiveReferencePose: 0
    m_LoopTime: 1
    m_LoopBlend: 0
    m_LoopBlendOrientation: 0
    m_LoopBlendPositionY: 0
    m_LoopBlendPositionXZ: 0
    m_KeepOriginalOrientation: 0
    m_KeepOriginalPositionY: 1
    m_KeepOriginalPositionXZ: 0
    m_HeightFromFeet: 0
    m_Mirror: 0
  m_EditorCurves: []
  m_EulerEditorCurves: []
  m_HasGenericRootTransform: 0
  m_HasMotionFloatCurves: 0
  m_GenerateMotionCurves: 0
  m_Events: []
