%YAML 1.1
%TAG !u! tag:unity3d.com,2011:
--- !u!74 &7400000
AnimationClip:
  m_ObjectHideFlags: 0
  m_CorrespondingSourceObject: {fileID: 0}
  m_PrefabInternal: {fileID: 0}
  m_Name: IperBotIdle
  serializedVersion: 6
  m_Legacy: 0
  m_Compressed: 0
  m_UseHighQualityCurve: 1
  m_RotationCurves: []
  m_CompressedRotationCurves: []
  m_EulerCurves: []
  m_PositionCurves: []
  m_ScaleCurves: []
  m_FloatCurves: []
  m_PPtrCurves:
  - curve:
    - time: 0
      value: {fileID: 21300000, guid: 97b1c10e3822a4293b93bb855726648d, type: 3}
    - time: 0.083333336
      value: {fileID: 21300000, guid: 3ac5882d971a348fe991182c965df6ac, type: 3}
    - time: 0.16666667
      value: {fileID: 21300000, guid: 413e46291fe724852b1b70977da03522, type: 3}
    - time: 0.25
      value: {fileID: 21300000, guid: 1b4d6cb1c11c04d95820992bbc3efb78, type: 3}
    - time: 0.33333334
      value: {fileID: 21300000, guid: 56110b47df43c4dcd90258fa9ab43446, type: 3}
    - time: 0.41666666
      value: {fileID: 21300000, guid: 8aa4172b3c71548f28001601bff05b03, type: 3}
    - time: 0.5
      value: {fileID: 21300000, guid: 8630729c43a7945459da3fed12e115f8, type: 3}
    - time: 0.5833333
      value: {fileID: 21300000, guid: de56f4b3f03314a4a8d4aafbfadf7629, type: 3}
    - time: 0.6666667
      value: {fileID: 21300000, guid: 7d62ce9fec20f4314ae26f399149e706, type: 3}
    - time: 0.75
      value: {fileID: 21300000, guid: 58cc751cf1ed247e49546771218d0523, type: 3}
    - time: 0.8333333
      value: {fileID: 21300000, guid: fcd8383fa8e28439f89144060247270f, type: 3}
    - time: 0.9166667
      value: {fileID: 21300000, guid: 9bcc56aa1f18744b0af67949825527ed, type: 3}
    - time: 1
      value: {fileID: 21300000, guid: 45a852f13996e44c68d0bbff9625b2b6, type: 3}
    - time: 1.0833334
      value: {fileID: 21300000, guid: 4a67d348d18bf44e6ad91f73e07039c2, type: 3}
    - time: 1.1666666
      value: {fileID: 21300000, guid: 01996dbdfdf404effbe0d18b0151e6e3, type: 3}
    attribute: m_Sprite
    path: 
    classID: 212
    script: {fileID: 0}
  m_SampleRate: 12
  m_WrapMode: 0
  m_Bounds:
    m_Center: {x: 0, y: 0, z: 0}
    m_Extent: {x: 0, y: 0, z: 0}
  m_ClipBindingConstant:
    genericBindings:
    - serializedVersion: 2
      path: 0
      attribute: 0
      script: {fileID: 0}
      typeID: 212
      customType: 23
      isPPtrCurve: 1
    pptrCurveMapping:
    - {fileID: 21300000, guid: 97b1c10e3822a4293b93bb855726648d, type: 3}
    - {fileID: 21300000, guid: 3ac5882d971a348fe991182c965df6ac, type: 3}
    - {fileID: 21300000, guid: 413e46291fe724852b1b70977da03522, type: 3}
    - {fileID: 21300000, guid: 1b4d6cb1c11c04d95820992bbc3efb78, type: 3}
    - {fileID: 21300000, guid: 56110b47df43c4dcd90258fa9ab43446, type: 3}
    - {fileID: 21300000, guid: 8aa4172b3c71548f28001601bff05b03, type: 3}
    - {fileID: 21300000, guid: 8630729c43a7945459da3fed12e115f8, type: 3}
    - {fileID: 21300000, guid: de56f4b3f03314a4a8d4aafbfadf7629, type: 3}
    - {fileID: 21300000, guid: 7d62ce9fec20f4314ae26f399149e706, type: 3}
    - {fileID: 21300000, guid: 58cc751cf1ed247e49546771218d0523, type: 3}
    - {fileID: 21300000, guid: fcd8383fa8e28439f89144060247270f, type: 3}
    - {fileID: 21300000, guid: 9bcc56aa1f18744b0af67949825527ed, type: 3}
    - {fileID: 21300000, guid: 45a852f13996e44c68d0bbff9625b2b6, type: 3}
    - {fileID: 21300000, guid: 4a67d348d18bf44e6ad91f73e07039c2, type: 3}
    - {fileID: 21300000, guid: 01996dbdfdf404effbe0d18b0151e6e3, type: 3}
  m_AnimationClipSettings:
    serializedVersion: 2
    m_AdditiveReferencePoseClip: {fileID: 0}
    m_AdditiveReferencePoseTime: 0
    m_StartTime: 0
    m_StopTime: 1.25
    m_OrientationOffsetY: 0
    m_Level: 0
    m_CycleOffset: 0
    m_HasAdditiveReferencePose: 0
    m_LoopTime: 1
    m_LoopBlend: 0
    m_LoopBlendOrientation: 0
    m_LoopBlendPositionY: 0
    m_LoopBlendPositionXZ: 0
    m_KeepOriginalOrientation: 0
    m_KeepOriginalPositionY: 1
    m_KeepOriginalPositionXZ: 0
    m_HeightFromFeet: 0
    m_Mirror: 0
  m_EditorCurves: []
  m_EulerEditorCurves: []
  m_HasGenericRootTransform: 0
  m_HasMotionFloatCurves: 0
  m_GenerateMotionCurves: 0
  m_Events: []
